"Dealer Name","VIN","RO #","Survey Sent Date","Transaction Type","Customer Name","Customer Email","Unsubscribe Date","Survey Response Date","Consent To Publish","Star Rating","Referral Likelihood","Customer Experience","Customer Suggestion","Sales Person Name"
"Honda of Grand Forks","5FNYF4H73CB047183","2700139","6/21/2014 5:37 AM","Service","Tori Leister","tntleister@yahoo.com",,,,,,,,"Dan Wiebusch"
"Honda of Grand Forks","1N4AA51EX9C801755","2700059","6/19/2014 4:47 AM","Service","Alex Schilke","alexander.schilke.12@gmail.com",,,,,,,,"Garrett Evenson"
"Honda of Grand Forks","5FNRL3H55AB070922","2699930","6/17/2014 4:46 AM","Service","Fred Spencer Iv","fspencer@gfhonda.com",,"6/17/2014 6:58 AM","Y","5","10","Joel is fantastic","","Joel Dangerfield"
"Honda of Grand Forks","3N1AB6AP0AL699621","2700037","6/21/2014 5:36 AM","Service","Justin Marty","justinrmarty@gmail.com",,,,,,,,"Adam Lindquist"
"Honda of Grand Forks","5FNYF4H55DB047086","2699935","6/17/2014 4:47 AM","Service","Ian Symington","mail@bordertownwire.com",,,,,,,,"Dan Wiebusch"
"Honda of Grand Forks","1N6BA06BX5N545905","2700147","6/21/2014 5:37 AM","Service","Sean Erickson","sean.erick@gmail.com",,,,,,,,"Garrett Evenson"
"Honda of Grand Forks","JN8AF5MV4CT108926","2699485","6/20/2014 5:42 AM","Service","Christina Fritchman","christina.fritchman@gmail.com",,,,,,,,"Adam Lindquist"
"Honda of Grand Forks","5J6RE48798L048389","2699964","6/18/2014 4:47 AM","Service","Jonathan Strandell","jon.strandell@gfschools.org",,,,,,,,"Joel Dangerfield"
"Honda of Grand Forks","2G4WS52J341299058","2699889","6/17/2014 4:46 AM","Service","David Cink","dcink@gra.midco.net",,,,,,,,"Dan Wiebusch"
"Honda of Grand Forks","JN8AS5MV6DW149294","2700027","6/19/2014 4:46 AM","Service","Krishna Pokhrel","challu_bc@yahoo.com",,,,,,,,"Dan Wiebusch"
"Honda of Grand Forks","JHLRD78862C036844","2700101","6/20/2014 5:44 AM","Service","Zohn Gbieor","zohngbieor@msn.com",,,,,,,,"Garrett Evenson"
"Honda of Grand Forks","1HGCR2F76DA242523","2700043","6/19/2014 4:46 AM","Service","Mark Jenson","mjenson14@gra.midco.net",,,,,,,,"Garrett Evenson"
"Honda of Grand Forks","3GTRKVE37AG172623","2699943","6/17/2014 4:47 AM","Service","Marcus Bergstrom","utilityman51@hotmail.com",,,,,,,,"Garrett Evenson"
"Honda of Grand Forks","1HGCP2F43BA027562",,"6/18/2014 4:10 AM","Sales","Brian Cofer","kelldixon@yahoo.com",,,,,,,,"Larry Stadstad"
"Honda of Grand Forks","41301749","2700193","6/21/2014 5:38 AM","Service","Any Carry In","kesplund@rydellcars.com",,,,,,,,"Adam Lindquist"
"Honda of Grand Forks","JT3HN86R719056320","2700132","6/21/2014 5:36 AM","Service","Anthony Haley","tonyh_17@hotmail.com",,,,,,,,"Dan Wiebusch"
"Honda of Grand Forks","JH4DC53833C018873","2699849","6/15/2014 4:39 AM","Service","Brandon Dahl","grantdaniel3@yahoo.com",,,,,,,,"Garrett Evenson"
"Honda of Grand Forks","2HJYK16378H500308","2699950","6/18/2014 4:46 AM","Service","Mike Flermoen","mflermoen@gra.midco.net",,"6/18/2014 9:59 PM","N","4","9","","","Dan Wiebusch"
"Honda of Grand Forks","1HGCP2F47AA162865","2700034","6/19/2014 4:46 AM","Service","Jodie Wohlgamuth","wogs@gra.midco.net",,,,,,,,"Joel Dangerfield"
"Honda of Grand Forks","1HGES26741L062146","2700007","6/18/2014 4:47 AM","Service","Muna Mohamed","duniya@gmail.com",,,,,,,,"Dan Wiebusch"
"Honda of Grand Forks","2HGFB2F57EH500809",,"6/18/2014 4:10 AM","Sales","Tate Burns","mmburns05@yahoo.com",,,,,,,,"Chris Nielson"
"Honda of Grand Forks","5N1AR2MM2DC615765","2698836","6/20/2014 5:42 AM","Service","Joshua Zurcher","zunkel@hotmail.com",,,,,,,,"Joel Dangerfield"
"Honda of Grand Forks","1N6BA0EC9CN316607","2699874","6/17/2014 4:45 AM","Service","Robinson Excavating Inc.","robexc@invisimax.com",,,,,,,,"Dan Wiebusch"
"Honda of Grand Forks","1N4AA5AP7DC847151","2699908","6/17/2014 4:46 AM","Service","Troy Green","gfgreens@gra.midco.net",,"6/17/2014 10:35 AM","Y","4","8","The service person at the oil change did a good job with my requests","They did not clean my windows.  Maybe they do not do that here but it is always done at Rydell Chev.","Garrett Evenson"
"Honda of Grand Forks","JN8AS5MV3BW286304",,"6/20/2014 5:09 AM","Sales","Frances Chihanski","fchihans@gvtel.com",,,,,,,,"Deal House"
"Honda of Grand Forks","1N4AL3APXEN335484",,"6/19/2014 4:15 AM","Sales","Paul Ettl","hermanhelicopter@yahoo.com",,,,,,,,"Corey Wilde"
"Honda of Grand Forks","JN8AS5MV8BW294768",,"6/21/2014 5:05 AM","Sales","Lok Bhattarai","ubhattarai87@yahoo.com",,,,,,,,"Joshua Ames"
"Honda of Grand Forks","1HGCM56747A198090","2700060","6/20/2014 5:43 AM","Service","Jeanne Boman","jboman@altro.org",,,,,,,,"Dan Wiebusch"
"Honda of Grand Forks","1HGCR2E55EA213709",,"6/19/2014 4:15 AM","Sales","Dianne Montonye","shager@rydellchev.com",,"6/19/2014 5:54 AM","Y","5","10","Everyone was very friendly and super helpful!!! ","","Fred Spencer"
"Honda of Grand Forks","5N1BA0NC7BN609385",,"6/18/2014 4:10 AM","Sales","James Fournier","sn4nier@gra.midco.net",,,,,,,,"Deal House"
"Honda of Grand Forks","1GNDT13W2Y2249504","2699830","6/20/2014 5:43 AM","Service","Jennifer Hoffman","legzilla@yahoo.com",,,,,,,,"Dave Pederson"
"Honda of Grand Forks","2HGFG3B57DH533014","2698607","5/23/2014 4:57 AM","Service","Jason Driscoll","magsx2@gra.midco.net",,"6/17/2014 8:28 PM","Y","5","10","Everyone was so friendly and helpful","No.  I can't think of anything","Garrett Evenson"
"Honda of Grand Forks","5FNYF48669B025792","2700119","6/20/2014 5:45 AM","Service","Janelle Mitzel","jmitzel_@msn.com",,,,,,,,"Garrett Evenson"
"Honda of Grand Forks","JHMCG56431C010973","2699867","6/17/2014 4:45 AM","Service","Chad/Jhannea Ringenberg","cjrweb@gra.midco.net",,,,,,,,"Dan Wiebusch"
"Honda of Grand Forks","JTDKN3DU5D5680608","2700105","6/20/2014 5:44 AM","Service","Kent Connell","klconell@gmail.com",,"6/20/2014 7:43 AM","Y","5","10","Fast and friendly","","Garrett Evenson"
"Honda of Grand Forks","5FNYF18495B035112","2699684","6/20/2014 5:42 AM","Service","Jeri Penas","jerischmiess@hotmail.com",,,,,,,,"Joel Dangerfield"
"Honda of Grand Forks","2GCEK13M971525531","2700016","6/19/2014 4:45 AM","Service"," Strata Corp/Kinetic Leasing","julie_792@stratacorporation.com",,,,,,,,"Dan Wiebusch"
"Honda of Grand Forks","JN1CV6ARXBM406607","2700047","6/19/2014 4:46 AM","Service","Linda Opstad","lindaopstad@gmail.com",,,,,,,,"Garrett Evenson"
"Honda of Grand Forks","JN8AZ1MW1DW309322","2700103","6/20/2014 5:44 AM","Service","Savina Laughlin","savinalaughlin@gmail.com",,,,,,,,"Dan Wiebusch"
"Honda of Grand Forks","2G1WC57M591215861","2700042","6/19/2014 4:46 AM","Service","David Enger","krameristhebest@yahoo.com",,,,,,,,"Adam Lindquist"
"Honda of Grand Forks","5N1BV28U65N118928","2699885","6/15/2014 4:39 AM","Service","Jessica Logan","jdlogan@gmail.com",,,,,,,,"Dave Pederson"
"Honda of Grand Forks","2GCEK19T011296209","2699842","6/18/2014 4:46 AM","Service","Sharon Lilke","mylol@gra.midco.net",,,,,,,,"Garrett Evenson"
"Honda of Grand Forks","5N1AT2MV0EC819783",,"6/18/2014 4:09 AM","Sales","Carolyn Kueber","carolyn.kueber@mayvillestate.edu",,,,,,,,"Dan Lizakowski"
"Honda of Grand Forks","1N4BA41EX6C803855","2700048","6/19/2014 4:46 AM","Service","Joseph Dalzell","rosales82104@hotmail.com",,,,,,,,"Garrett Evenson"
"Honda of Grand Forks","2GCEK19Y371715304",,"6/18/2014 4:10 AM","Sales","Michael Bjerke","mbjerke@gmail.com",,,,,,,,"Larry Stadstad"
"Honda of Grand Forks","1HGCP26449A074609","2699861","6/15/2014 4:39 AM","Service","Keith Mercer","kmercer6@gmail.com",,,,,,,,"Dan Wiebusch"
"Honda of Grand Forks","3N1CE2CP1EL366808","2699273","6/18/2014 4:46 AM","Service","Nicholas Anthony","amn.anthony@gmail.com",,,,,,,,"Joel Dangerfield"
"Honda of Grand Forks","3N1BC13E08L372761","2699882","6/17/2014 4:45 AM","Service","Mark Mathews","mrmathews@wiktel.com",,,,,,,,"Dan Wiebusch"
"Honda of Grand Forks","5J6RM4H50EL083528",,"6/18/2014 4:09 AM","Sales","Robert Halberg","halberg@polarcomm.com",,,,,,,,"Larry Stadstad"
"Honda of Grand Forks","1N4AL21E99N555939","2700116","6/20/2014 5:45 AM","Service","Anna Schumacher","anna.schu@outlook.com",,,,,,,,"Garrett Evenson"
"Honda of Grand Forks","JN8AF5MV8BT020556","2700044","6/19/2014 4:46 AM","Service","Mark Christenson","m6j5c@hotmail.com",,,,,,,,"Garrett Evenson"
"Honda of Grand Forks","5J6RE48319L062575","2699868","6/17/2014 4:45 AM","Service","Scott Palmiscno","clpalmiscno@gfschools.org",,"6/18/2014 4:43 PM","Y","5","10","FAST SERVICE.","NO","Dan Wiebusch"
"Honda of Grand Forks","1HGCR2F38EA240058",,"6/19/2014 4:15 AM","Sales","Charles Makovsky","cmakovsky@gra.midco.net",,"6/19/2014 5:16 AM","Y","5","10","Salesperson- Fred Spencer Quality Vehicles Smooth teamwork from test driving to purchasing","","Fred Spencer"
"Honda of Grand Forks","JN8AZ18W29W113293","2699755","6/20/2014 5:43 AM","Service","Janet Devillers","jdevillers@msn.com",,,,,,,,"Adam Lindquist"
"Honda of Grand Forks","5FNYF4H55CB017584","2700138","6/21/2014 5:37 AM","Service","Lori Menke","loriwebermenke@yahoo.com",,,,,,,,"Dan Wiebusch"
"Honda of Grand Forks","5FNRL18983B145588","2700026","6/19/2014 4:46 AM","Service","Jerry Zimney","jdzimney@gra.midco.net",,,,,,,,"Dan Wiebusch"
"Honda of Grand Forks","1G2NF52E84M553458","2700032","6/19/2014 4:46 AM","Service","Dalonda Dalin","dalonda.dalin@my.und.edu",,,,,,,,"Joel Dangerfield"
"Honda of Grand Forks","1HGCM56485L003115","2700025","6/19/2014 4:45 AM","Service","Beverly Olson","beverlyo@edgewoodvista.com",,,,,,,,"Dan Wiebusch"
"Honda of Grand Forks","A9UUA76577A015434","2700107","6/20/2014 5:45 AM","Service","Timothy Kasprick","tkdtoolman@gmail.com",,,,,,,,"Dan Wiebusch"
"Honda of Grand Forks","3N1AB61E39L646566","2700128","6/21/2014 5:36 AM","Service","Betsy Thaden","mbthaden@gmail.com",,"6/21/2014 9:04 PM","Y","5","10","Courteous, friendly, and immediate service. ","Although...this is not totally related to the oil change service itself...Sometimes the inside is cleaned well and other times not. It is always nice to have the additional perks of having a clean interior! Thank you! ","Dan Wiebusch"
"Honda of Grand Forks","JN8AZ1MW4CW200836","2699119","6/18/2014 4:45 AM","Service","Erica Marchus","erica_marchus@yahoo.com",,,,,,,,"Joel Dangerfield"
"Honda of Grand Forks","JN8AZ08W83W238168","2700009","6/19/2014 4:45 AM","Service","Kathy Brown","eiskb@yahoo.com",,,,,,,,"Adam Lindquist"
"Honda of Grand Forks","2HKRM4H56EH678202",,"6/19/2014 4:15 AM","Sales","Steven Peterson","shpeterson@me.com",,,,,,,," Gmsales"
"Honda of Grand Forks","2GNFLEEK3C6224956","2700056","6/19/2014 4:46 AM","Service","Kenneth Lawrence","klawrence69@yahoo.com",,,,,,,,"Dan Wiebusch"
"Honda of Grand Forks","5FNYF4H28EB012002","2699864","6/20/2014 5:43 AM","Service","Marina Kojic-Zepackic","mkolic@gfscholls.org",,,,,,,,"Dan Wiebusch"
"Honda of Grand Forks","5FNYF4H55DB018106","2700154","6/21/2014 5:37 AM","Service","Robert Mullen","bob@bobmullen.com",,,,,,,,"Garrett Evenson"
"Honda of Grand Forks","2G1WF55E529387527","2700087","6/20/2014 5:44 AM","Service","Kristen Havis","khavis@cbrrv.com",,,,,,,,"Garrett Evenson"
"Honda of Grand Forks","5TDBT48A41S032596","2699945","6/17/2014 4:47 AM","Service","Jerry Bugliosi","boogiemanjb@yahoo.com",,,,,,,,"Garrett Evenson"
"Honda of Grand Forks","5N1AR2MM7EC674215",,"6/19/2014 4:15 AM","Sales","Eben Spencer","spencer@invisimax.com",,,,,,,,"Dan Lizakowski"
"Honda of Grand Forks","JA4LZ41GX3U032662","2700124","6/21/2014 5:36 AM","Service","Victoria Gbieur","vgbieur@yahoo.com",,,,,,,,"Dan Wiebusch"
"Honda of Grand Forks","1N4AA5AP0EC468719",,"6/18/2014 4:10 AM","Sales","Karen Williams","kkwilli48@hotmail.com",,,,,,,,"Chris Bjerk"
"Honda of Grand Forks","5FNRL3H60AB015559","2700006","6/18/2014 4:47 AM","Service","Alice Drew","alicedrew@gra.midco.net",,,,,,,,"Dan Wiebusch"
"Honda of Grand Forks","1HGCD5634VA199086","2700157","6/21/2014 5:37 AM","Service","Mark Storhaug","brian.storhaug@my.und.edu",,,,,,,,"Joel Dangerfield"
"Honda of Grand Forks","9S127937","2700095","6/20/2014 5:44 AM","Service","Brenda Peterson","brendapeterson736@yahoo.com",,,,,,,,"Joel Dangerfield"
"Honda of Grand Forks","JHLRD77862C056142","2700067","6/20/2014 5:44 AM","Service","David Hollingworth","david.hollingworth@und.edu",,,,,,,,"Dan Wiebusch"
"Honda of Grand Forks","2HKRM4H70EH676110",,"6/13/2014 4:08 AM","Sales","Cheryl Bauer","bcbauer327@msn.com",,"6/15/2014 4:53 PM","Y","5","10","Everything went really well.","Nothing - If Corey is your salesman.","Corey Wilde"
"Honda of Grand Forks","1N4AL2AP0BN428701","2700005","6/18/2014 4:47 AM","Service","Deann Mattson","pdmattson@gra.midco.net",,,,,,,,"Dan Wiebusch"
"Honda of Grand Forks","2GCEK13T441375766","2699873","6/17/2014 4:45 AM","Service","Shane Reynolds","hntr4vr2@yahoo.com",,,,,,,,"Dave Pederson"
"Honda of Grand Forks","5FNRL5H6XEB054323","2700145","6/21/2014 5:37 AM","Service","Barry Folson","barry@folsonfarms.com",,,,,,,,"Garrett Evenson"
"Honda of Grand Forks","5FNRL38408B082249","2699841","6/15/2014 4:39 AM","Service","Shanna Larson","larsonshanna@hotmail.com",,,,,,,,"Garrett Evenson"
"Honda of Grand Forks","1GNEK13Z74R287216","2699951","6/18/2014 4:46 AM","Service","Gregory Syrup","syrup08@hotmail.com",,,,,,,,"Garrett Evenson"
"Honda of Grand Forks","JHMFA36216S012395","2700081","6/20/2014 5:44 AM","Service","Ross Parker","rparker@gfparks.org",,,,,,,,"Joel Dangerfield"
"Honda of Grand Forks","WBAEV33473KR24299",,"6/19/2014 4:15 AM","Sales","Devlin Reasy","dreasey27@centurylink.net",,,,,,,,"Devlin Reasy"
"Honda of Grand Forks","JHLRE48557C068645","2699990","6/18/2014 4:47 AM","Service","William Reid","wreidfam@hotmail.com",,"6/18/2014 11:20 AM","Y","5","10","""Everyone"" is consistently helpful and courteous every visit! The service tech tracked us down in the showroom to tell us how clean the air filters were, with them in hand... great follow-up and attention to detail.","We have been Honda customers through a few models and your training leaves nothing else to be desired. ","Dan Wiebusch"
"Honda of Grand Forks","JHLRD77432C083277","2698576","6/20/2014 5:42 AM","Service","Greg Harper","bobbybare56@yahoo.com",,,,,,,,"Joel Dangerfield"
"Honda of Grand Forks","3N1AB61E57L602405","2699615","6/14/2014 4:36 AM","Service","Paul Snyder","snyder@aero.und.edu",,"6/16/2014 9:15 AM","Y","5","9","Personnel Care and quick attention of Joel Dangerfield and Tim Vick","Nothing - ","Joel Dangerfield"
"Honda of Grand Forks","1HGCP36878A086275","2699890","6/15/2014 4:40 AM","Service","Rob Pearson","rob.v.pearson@hotmail.com",,,,,,,,"Dave Pederson"
"Honda of Grand Forks","2HGFA1F50BH517959","2700022","6/19/2014 4:45 AM","Service","Lisa Carney","lmcwolf@live.com",,,,,,,,"Dan Wiebusch"
"Honda of Grand Forks","5J6YH28523L044845","2699961","6/17/2014 4:47 AM","Service","Shannon Gramm","kitycat24@gmail.com",,,,,,,,"Dan Wiebusch"
"Honda of Grand Forks","1GKFK16Z92J196201","2699854","6/15/2014 4:39 AM","Service","Lisa Potucek","potucekd@yahoo.com",,,,,,,,"Dan Wiebusch"
"Honda of Grand Forks","2HJYK16227H544819","2699911","6/17/2014 4:46 AM","Service","Edward Martin","mybuttercup11@yahoo.com",,,,,,,,"Joel Dangerfield"
"Honda of Grand Forks","JHLRE48547C073156","2699907","6/17/2014 4:46 AM","Service","Sue Erickson","suerosha@hotmail.com",,,,,,,,"Joel Dangerfield"
"Honda of Grand Forks","2HKYF18764H558226","2700074","6/20/2014 5:44 AM","Service"," Marsha E Johnson Living Trust","norskie1880@hotmail.com",,"6/20/2014 10:15 AM","Y","5","10","Fast, courteous, and professional.","","Dan Wiebusch"
"Honda of Grand Forks","JN8AZ1MW1CW229341","2699862","6/15/2014 4:39 AM","Service","Rachel Fisher","srfisher@gra.midco.net",,,,,,,,"Dan Wiebusch"
"Honda of Grand Forks","1HGCM56327A204255","2700041","6/19/2014 4:46 AM","Service","Anne Mccabe","annemccabe@grd.midco.net",,,,,,,,"Garrett Evenson"
"Honda of Grand Forks","1HGCP2F81BA027045","2699903","6/17/2014 4:46 AM","Service","Evan Wilcox","evan.wilcox@insureforward.com",,,,,,,,"Garrett Evenson"
"Honda of Grand Forks","JN8AZ08WX6W547208","2699904","6/17/2014 4:46 AM","Service","Karen Bakken","kmbccs@yahoo.com",,,,,,,,"Garrett Evenson"
"Honda of Grand Forks","KL5JD56Z77K516257","2699886","6/17/2014 4:45 AM","Service","Govinda Adhikari","lazmidkri@gmail.com",,,,,,,,"Dan Wiebusch"
"Honda of Grand Forks","1GNDX03E32D263980","2699884","6/17/2014 4:45 AM","Service","Jennifer Linch Hurst","jenniferlinchhurst@hotmail.com",,,,,,,,"Dan Wiebusch"
"Honda of Grand Forks","1G1AK55F767758807","2700057","6/19/2014 4:46 AM","Service","Nathaniel Schroeder","nate.schroeder09@gmail.com",,,,,,,,"Dave Pederson"
"Honda of Grand Forks","5FNRL38739B017116","2700102","6/20/2014 5:44 AM","Service","Doyle Hein","dkhein@polarcomm.com",,,,,,,,"Dan Wiebusch"
"Honda of Grand Forks","5FNYF4H66AB039812","2699892","6/17/2014 4:46 AM","Service","Clarence Hietala","chietala@invisimax.com",,,,,,,,"Dan Wiebusch"
"Honda of Grand Forks","5FPYK1F51BB011672","2700142","6/21/2014 5:37 AM","Service","Gary Rud","nancyrud@gra.midco.net",,"6/21/2014 7:24 AM","Y","5","10","i was told how long this would a take and Joel was right on. thanks","","Joel Dangerfield"
"Honda of Grand Forks","1FTFW1ET1CFA88477",,"6/21/2014 5:05 AM","Sales","Arthur Haggerty","haggerty1963@gmail.com",,,,,,,,"Devlin Reasy"
"Honda of Grand Forks","5N1AR18W77C632572","2700169","6/21/2014 5:38 AM","Service","Cory Green","cgreen3000@yahoo.com",,,,,,,,"Dan Wiebusch"
"Honda of Grand Forks","JHMCG5640YC040362","2699955","6/18/2014 4:46 AM","Service","Pam Fisher","pamefisher@gmail.com",,,,,,,,"Dan Wiebusch"
"Honda of Grand Forks","2HKRM4H72DH693103","2699881","6/17/2014 4:45 AM","Service","Jon Kolberg","jkolberg2012@gmail.com",,,,,,,,"Dan Wiebusch"
"Honda of Grand Forks","2HJYK16407H541077","2699975","6/18/2014 4:47 AM","Service","Kenneth Egan","kbe.king@gmail.com",,,,,,,,"Adam Lindquist"
"Honda of Grand Forks","2G1WT58K179161390","2699942","6/17/2014 4:47 AM","Service"," Gateway Cenex","b1inc@midconatwork.com",,,,,,,,"Joel Dangerfield"
"Honda of Grand Forks","2G2WP552881174612","2700113","6/20/2014 5:45 AM","Service","Kevin Neagbour","kevinneagbour@yahoo.com",,,,,,,,"Andrew Neumann"
"Honda of Grand Forks","5FNYF4H50AB016517","2699872","6/17/2014 4:45 AM","Service"," Bergstrom Electric Inc","bei@bergstromelectic.com",,,,,,,,"Dan Wiebusch"
"Honda of Grand Forks","5NPEU46F16H049183","2699844","6/19/2014 4:45 AM","Service","Jared Hofstad","jaredhofstad@hotmail.com",,,,,,,,"Adam Lindquist"
"Honda of Grand Forks","1GKEV337471144600","2699994","6/18/2014 4:47 AM","Service","Dorothy Luehring","dorothy.luehring@yahoo.com",,,,,,,,"Dan Wiebusch"
"Honda of Grand Forks","5FNRL5H48CB044417","2699878","6/18/2014 4:46 AM","Service","Charles Coward","cowca@netzero.net",,,,,,,,"Dan Wiebusch"
"Honda of Grand Forks","1FAFP55283A198795",,"6/21/2014 5:05 AM","Sales","Jaci Helgeson","jluvbb@gmail.com",,,,,,,,"Chris Nielson"
"Honda of Grand Forks","2HGFB2F87EH526756",,"6/18/2014 4:10 AM","Sales","Keyla Colon Maldonado","kcolon1215@gmail.com",,,,,,,,"Aaron Poff"
"Honda of Grand Forks","2HGFA16659H019243","2699865","6/18/2014 4:46 AM","Service","Jean Clibbery","jclibbery@hotmail.com",,,,,,,,"Dan Wiebusch"
"Honda of Grand Forks","JN8AZ1MW8AW101028","2699965","6/19/2014 4:45 AM","Service","Darrell Gilbertson","dgilbertson@acmetoolcrib.com",,,,,,,,"Joel Dangerfield"
"Honda of Grand Forks","1HGCP26889A085809","2699932","6/17/2014 4:47 AM","Service","Ata Abbas","ata.abbas110@gmail.com",,"6/17/2014 8:00 AM","Y","5","10","Best and reliable service. ","","Dan Wiebusch"
"Honda of Grand Forks","5N1AR2MM9EC636274","2699846","6/15/2014 4:39 AM","Service","Robert Grimm","shotgun@gra.midco.net",,"6/15/2014 9:18 AM","Y","4","10","The oil change was completed quickly.  The service advisor answered my questions. The 20.00 discount on oil changes that I was given when I bought the Pathfinder.  ","A message was displayed when I drove away from the dealership.  It was meaningless but I didn't know how to get rid of it.  I stopped in the next day and the person who had sold me the vehicle took the time to show me how to clear the message from the screen.  ","Garrett Evenson"
"Honda of Grand Forks","5FNRL5H66DB079878","2700068","6/19/2014 4:47 AM","Service","Paul Bethke","susanne.bethke@gra.midco.net",,,,,,,,"Garrett Evenson"
