"Dealer Name","VIN","RO #","Survey Sent Date","Transaction Type","Customer Name","Customer Email","Unsubscribe Date","Survey Response Date","Consent To Publish","Star Rating","Referral Likelihood","Customer Experience","Pass Profanity","Dealer Response Date","Dealer Response","Sales Person Name","Publication Date","Publication Status"
"Rydell Chevrolet Buick GMC Cadillac","1GCES14HX5B114279","16156024","6/13/2014 8:20 AM","Service","Neal Martin","dakotadocmartin@gmail.com",,"6/13/2014 8:34 AM","Y","5","10","Very nice waiting room, service writers and techs very friendly.","Yes","06/14/2014 13:26","We're so happy to hear that you had a positive experience.  We look forward to continuing to work with you.","Ramberg Gary","06/19/2014","Pending"
"Rydell Chevrolet Buick GMC Cadillac","1GNKVFED6DJ155586","19171264","6/11/2014 8:09 AM","Service","Cynthia Severinson","cjseverinson@altru.org",,,,,,,,,,"Johnston Nick",,
"Rydell Chevrolet Buick GMC Cadillac","2CNDL737086024789","16155039","6/11/2014 8:05 AM","Service","Joann Wallace","sunrisetherapy@live.com",,,,,,,,,,"Bursinger Travis",,
"Rydell Chevrolet Buick GMC Cadillac","1GCEK19T13E265200","16155879","6/11/2014 8:06 AM","Service","James Warmack","jwarmack@rydellcars.com",,,,,,,,,,"Carlson Ken",,
"Rydell Chevrolet Buick GMC Cadillac","2G4WB55K111287104","16156099","6/14/2014 8:16 AM","Service","Edward Prasnicky","prasnicky@gra.midco.net",,,,,,,,,,"Stinar Cory",,
"Rydell Chevrolet Buick GMC Cadillac","2G1WF52E159342111","19171133","6/11/2014 8:08 AM","Service","Katherine Blumhagen","kathy2726@gra.midco.net",,,,,,,,,,"Collins Brian",,
"Rydell Chevrolet Buick GMC Cadillac","2G1WT55N689132953","19171242","6/11/2014 8:09 AM","Service","Terry Dvorak","dvorak@mstgf.com",,,,,,,,,,"Robles Rudolph",,
"Rydell Chevrolet Buick GMC Cadillac","2GTEK19T341263032","19171568","6/13/2014 8:22 AM","Service","David Adams","cindya@greenbergrealty.com",,,,,,,,,,"Flikka Matt",,
"Rydell Chevrolet Buick GMC Cadillac","3GCPKSE36BG232835","19171119","6/11/2014 8:08 AM","Service","Tammy Nickelson","bnickelson@eapc.net",,,,,,,,,,"Collins Brian",,
"Rydell Chevrolet Buick GMC Cadillac","2G1WX12KXX9193650","19171567","6/13/2014 8:22 AM","Service","June Roseen","juneroseen@yahoo.com",,,,,,,,,,"Johnston Nick",,
"Rydell Chevrolet Buick GMC Cadillac","1GNKVJED4CJ107960","19171254","6/11/2014 8:09 AM","Service","Christopher Olson","cbolson566@hotmail.com",,,,,,,,,,"Robles Rudolph",,
"Rydell Chevrolet Buick GMC Cadillac","1GNDT13S332372248","19171383","6/11/2014 8:10 AM","Service","Rick Ramirez","701rickross@gmx.com",,,,,,,,,,"Robles Rudolph",,
"Rydell Chevrolet Buick GMC Cadillac","1GKDT13S032157634","19171063","6/11/2014 8:07 AM","Service","Mark Nelson","ncknlsn97@gmail.com",,,,,,,,,,"Johnston Nick",,
"Rydell Chevrolet Buick GMC Cadillac","1GCRKSE35BZ204744","16155141","6/11/2014 8:05 AM","Service","Daniel Nerby","dannerby@gra.midco.net",,"6/11/2014 10:26 AM","Y","5","10","Always great!!!!","Yes","06/12/2014 03:31","Thank you very much!","Bursinger Travis","06/17/2014","Pending"
"Rydell Chevrolet Buick GMC Cadillac","3GCUKREC0EG131936","16155681","6/13/2014 8:20 AM","Service","Kenneth Coauette","kcoauette@hotmail.com",,,,,,,,,,"T. Rodney",,
"Rydell Chevrolet Buick GMC Cadillac","3GNGK22G34G243230","16154812","6/11/2014 8:05 AM","Service","Russell Myers","nancyann@gra.midco.net",,,,,,,,,,"Bursinger Travis",,
"Rydell Chevrolet Buick GMC Cadillac","5GAKVDKD7DJ147466","19171587","6/13/2014 8:23 AM","Service","Raymond Pinta","smart_mom1@hotmail.com",,,,,,,,,,"Johnston Nick",,
"Rydell Chevrolet Buick GMC Cadillac","1G1PC5SB9E7301410",,"6/11/2014 10:11 AM","Sales","Cecilia Blackman","ciablackman@yahoo.com",,,,,,,,,,"Foy Tracy",,
"Rydell Chevrolet Buick GMC Cadillac","1G1PG5S97B7122375","19171408","6/13/2014 8:21 AM","Service","Chase Enghauser","chase.enghuaser@gmail.com",,,,,,,,,,"Robles Rudolph",,
"Rydell Chevrolet Buick GMC Cadillac","2GTEK13T461187154","19171093","6/11/2014 8:07 AM","Service","Bryan Olson","bryan9014@gra.midco.net",,,,,,,,,,"Robles Rudolph",,
"Rydell Chevrolet Buick GMC Cadillac","3GTU2VEC9EG183364","19171224","6/12/2014 8:18 AM","Service","Brian Helms","bhelmsmn@aol.com",,,,,,,,,,"Robles Rudolph",,
"Rydell Chevrolet Buick GMC Cadillac","1G11D5SR7DF125798","16154684","6/14/2014 8:16 AM","Service","Timothy Lommen","jescascad@yahoo.com",,"6/14/2014 11:12 AM","Y","5","10","Very friendly.  Nice people.  Always willing to help and fix the problem","Yes","06/15/2014 00:22","Our team is very happy to hear about your excellent review and I hope we can continue to provide you with outstanding service.","Maro Nick","06/20/2014","Pending"
"Rydell Chevrolet Buick GMC Cadillac","1GCPKTE72CF210147","19171113","6/11/2014 8:07 AM","Service","Shawn Kaiser","skaiser@strata-corp.com",,,,,,,,,,"Johnston Nick",,
"Rydell Chevrolet Buick GMC Cadillac","1G1JC5SH6E4154541",,"6/9/2014 8:01 AM","Sales","Janine Cooke","smalltowngirl@gra.midco.net",,"6/9/2014 2:28 PM","Y","5","10","Josh,my salesperson was very knowledgable and helpful. He was able to answer all of my questions and made some good suggestions.","Yes","06/09/2014 23:50","Thanks for taking time out of your day to tell us about your excellent experience.  We're proud to know that our team treated you so well and look forward to seeing you again in the future.","Barker Josh","06/16/2014","Pending"
"Rydell Chevrolet Buick GMC Cadillac","3GNEK13T32G150038","16155770","6/12/2014 8:16 AM","Service","Stefan Johnson","swjohnson09@gmail.com",,,,,,,,,,"Ramberg Gary",,
"Rydell Chevrolet Buick GMC Cadillac","2G1WF5EK3B1270386","19171260","6/11/2014 8:09 AM","Service","Duane Lowe","clowe@gra.midco.net",,"6/11/2014 9:30 PM","Y","5","10","We had the oil changed. Therre were a couple of cars in front of us. But we still managed to get our car done pretty quick. We were treated well. Thanks.","Yes","06/12/2014 05:02","We're so happy to hear that you had a positive experience.  We look forward to continuing to work with you.","Robles Rudolph","06/18/2014","Pending"
"Rydell Chevrolet Buick GMC Cadillac","3GCRKSE39AG133160","19171139","6/11/2014 8:08 AM","Service","Greg Weber","bandgweber@gra.midco.net",,,,,,,,,,"Robles Rudolph",,
"Rydell Chevrolet Buick GMC Cadillac","1GNDT13S352236303","19171350","6/11/2014 8:10 AM","Service","Kayla Odstrcil","dnh@yahoo.com",,,,,,,,,,"Collins Brian",,
"Rydell Chevrolet Buick GMC Cadillac","1GYEE637670178227","19171557","6/13/2014 8:22 AM","Service","Lavonne Thompson","b.thompson@gra.midco.net",,,,,,,,,,"Flikka Matt",,
"Rydell Chevrolet Buick GMC Cadillac","1G1ZC5E03CF205763","19171663","6/13/2014 8:23 AM","Service","Renee Kringlen","rlkringlen@wiktel.com",,,,,,,,,,"Robles Rudolph",,
"Rydell Chevrolet Buick GMC Cadillac","3GCPKSE39BG233462","19171636","6/13/2014 8:23 AM","Service","James Pulkrabek","jamesonpulkrabek@yahoo.com",,,,,,,,,,"Robles Rudolph",,
"Rydell Chevrolet Buick GMC Cadillac","1G1ZT54895F184007","19171151","6/11/2014 8:08 AM","Service","Kent Lovelace","lovelace@aero.und.edu",,,,,,,,,,"Collins Brian",,
"Rydell Chevrolet Buick GMC Cadillac","1GKDT13S362326016","19171456","6/11/2014 8:11 AM","Service","Glen Hoffarth","glen.hoffarth@und.edu",,,,,,,,,,"Flikka Matt",,
"Rydell Chevrolet Buick GMC Cadillac","2G1WL52JX11277287","19171647","6/13/2014 8:23 AM","Service","Tom Cudmore","skcudmore@hotmail.com",,,,,,,,,,"Collins Brian",,
"Rydell Chevrolet Buick GMC Cadillac","2G1WG5E33D1250230","19170973","6/12/2014 8:17 AM","Service","Linda Sylstad","lsylstad@yahoo.com",,,,,,,,,,"Flikka Matt",,
"Rydell Chevrolet Buick GMC Cadillac","2CNFLEEC8B6348779","19171627","6/13/2014 8:23 AM","Service","Victoria Thompson","vickithompson@mail.und.edu",,,,,,,,,,"Berg Stephen",,
"Rydell Chevrolet Buick GMC Cadillac","1G4HR54KX1U248666","19171235","6/11/2014 8:09 AM","Service","Bob Horner","sallyhorner@mail.und.nodak.edu",,,,,,,,,,"Johnston Nick",,
"Rydell Chevrolet Buick GMC Cadillac","3GTU2WEJ9EG346180","16155577","6/13/2014 8:20 AM","Service","David Ristau","dristau1@yahoo.com",,,,,,,,,,"Ramberg Gary",,
"Rydell Chevrolet Buick GMC Cadillac","1G1YY22GX25110862","16153706","6/11/2014 8:05 AM","Service","James Duzan","jduzan@undeerc.org",,,,,,,,,,"Stinar Cory",,
"Rydell Chevrolet Buick GMC Cadillac","3GNFK16327G308215","16154855","6/11/2014 8:05 AM","Service","James Mehus","jgmehusa@polarcomm.com",,,,,,,,,,"Bursinger Travis",,
"Rydell Chevrolet Buick GMC Cadillac","2G61T5S30E9244439","16152172","6/13/2014 8:18 AM","Service","Richard Whelan","cwhalen@polarcomm.com",,,,,,,,,,"T. Rodney",,
"Rydell Chevrolet Buick GMC Cadillac","2CNALDEC7B6411066","19171495","6/13/2014 8:21 AM","Service","Robert Frasier","woodfrasier@gmail.com",,,,,,,,,,"Berg Stephen",,
"Rydell Chevrolet Buick GMC Cadillac","1GCEK19R4WR117334","16155735","6/12/2014 8:16 AM","Service","David Wilkie","wilkiemarica@gra.midco.net",,,,,,,,,,"Tyrrell John",,
"Rydell Chevrolet Buick GMC Cadillac","2CTFLVEC9B6225467","19171590","6/13/2014 8:23 AM","Service","Diana Peterson","dnh@yahoo.com",,,,,,,,,,"Collins Brian",,
"Rydell Chevrolet Buick GMC Cadillac","3GCRKSE32AG294496","19171616","6/13/2014 8:23 AM","Service","Jeffery Laskowske","jlasko51@hotmail.com",,,,,,,,,,"Robles Rudolph",,
"Rydell Chevrolet Buick GMC Cadillac","1GKFK63838J129059","19170987","6/12/2014 8:17 AM","Service","Dale Bangert","kbangert@altru.org",,,,,,,,,,"Collins Brian",,
"Rydell Chevrolet Buick GMC Cadillac","3GYFNAE31CS505637","16155998","6/13/2014 8:20 AM","Service","Kent Cronquist","kccronquist@yahoo.com",,,,,,,,,,"Tyrrell John",,
"Rydell Chevrolet Buick GMC Cadillac","1GNKRJED6BJ100950","19170649","6/13/2014 8:21 AM","Service","James Augustine","jnjaugustine@yahoo.com",,,,,,,,,,"Johnston Nick",,
"Rydell Chevrolet Buick GMC Cadillac","3GCPKTE79CG199842","19171491","6/13/2014 8:21 AM","Service","Jerry Tronnes","tronnes@rrv.net",,,,,,,,,,"Robles Rudolph",,
"Rydell Chevrolet Buick GMC Cadillac","1GKET16S456178840","19171159","6/11/2014 8:08 AM","Service","Corey Kasprick","lauraeng27@hotmail.com",,"6/11/2014 7:18 PM","Y","5","10","I went in for an oil change and to get a couple parts, by the time I got my parts, my vehicle was done. Great, Fast service!","Yes","06/12/2014 03:12","We're so happy to hear that you had a positive experience.  We look forward to continuing to work with you.","Vacura Scott","06/18/2014","Pending"
"Rydell Chevrolet Buick GMC Cadillac","3GTRKWE36AG184252","19171324","6/11/2014 8:09 AM","Service","Kent Gjerswold","just_horsin_around@hotmail.com",,,,,,,,,,"Flikka Matt",,
"Rydell Chevrolet Buick GMC Cadillac","2G1WF52E439294665","19171494","6/13/2014 8:21 AM","Service","Valerie Hornbaker","valeriehornbaker@yahoo.com",,,,,,,,,,"Robles Rudolph",,
"Rydell Chevrolet Buick GMC Cadillac","3GNDA13D08S561118","16155894","6/12/2014 8:16 AM","Service","Tanja Kapinos","ndtanja@aol.com",,"6/12/2014 8:51 AM","Y","5","9","Gary and John were very helpful.  Gary kept me informed and was able to get my vehicle in quickly and repairs done very quickly.  Courteous service!","Yes","06/13/2014 22:53","Our goal is to provide top-notch service so we appreciate your kind words about your experience. The whole Rydell Chevrolet Buick GMC Cadillac team would like to thank you for coming in and we hope to see you again in the near future.","Ramberg Gary","06/18/2014","Pending"
"Rydell Chevrolet Buick GMC Cadillac","1GNDT13S032173335","19171442","6/11/2014 8:10 AM","Service","Dadnia Bruce","dania_bruce@hotmail.com",,,,,,,,,,"Vacura Scott",,
"Rydell Chevrolet Buick GMC Cadillac","2CNDL13F366187065","19171499","6/13/2014 8:22 AM","Service","Debra Daniels","debdaniels@midco.net",,,,,,,,,,"Berg Stephen",,
"Rydell Chevrolet Buick GMC Cadillac","1G1ZJ57B78F251558","19171187","6/11/2014 8:08 AM","Service","Stacey Flesche","sflesche79@yahoo.com",,,,,,,,,,"Collins Brian",,
"Rydell Chevrolet Buick GMC Cadillac","1GNDT13S272295569","16156085","6/14/2014 8:16 AM","Service","Albert Hager","shager@rydellchev.com",,,,,,,,,,"Bursinger Travis",,
"Rydell Chevrolet Buick GMC Cadillac","2GNFLNE50C6210359","16156022","6/13/2014 8:20 AM","Service","Jennifer Olson","rolson7@gmail.com",,,,,,,,,,"Bursinger Travis",,
"Rydell Chevrolet Buick GMC Cadillac","3GTEK13M57G541457","19171060","6/11/2014 8:07 AM","Service","Chad Morten","dnh@yahoo.com",,,,,,,,,,"Collins Brian",,
"Rydell Chevrolet Buick GMC Cadillac","2G1WG5E39C1103926","19171043","6/11/2014 8:07 AM","Service","George Jarus","georgejarus@hotmail.com",,,,,,,,,,"Vacura Scott",,
"Rydell Chevrolet Buick GMC Cadillac","1G1ZH57B19F203955","19171571","6/13/2014 8:22 AM","Service","Corrine Sinclair","none@yahoo.com",,,,,,,,,,"Johnston Nick",,
"Rydell Chevrolet Buick GMC Cadillac","1GNDT13W3Y2294080","19171522","6/13/2014 8:22 AM","Service","Shylar Moore","dnh@yahoo.com",,,,,,,,,,"Collins Brian",,
"Rydell Chevrolet Buick GMC Cadillac","1GNEK13Z22J260579","19171112","6/11/2014 8:07 AM","Service","John Friend","jfriend@kru-corp.com",,,,,,,,,,"Robles Rudolph",,
"Rydell Chevrolet Buick GMC Cadillac","1G4HD57267U123960","18030112","6/13/2014 8:21 AM","Service","Craig Lacher","craig.lacher@ars.usda.gov",,"6/13/2014 9:47 AM","Y","4","8","Dealership is excellent, having trouble with the quality of a Buick. PLastic moldings and hardware that fall apart were not part of Buick's legacy of the past.","Yes","06/14/2014 02:23","It's great to hear that you had such a positive experience with our service department and thank you for the feedback.  We value your business and look forward to your next service appointment.","Sattler Nic","06/19/2014","Pending"
"Rydell Chevrolet Buick GMC Cadillac","2G1WF5E31C1308272","19171441","6/13/2014 8:21 AM","Service","Jacob Uhrich","jakeurich@hotmail.com",,,,,,,,,,"Collins Brian",,
"Rydell Chevrolet Buick GMC Cadillac","5GAEV23778J103855","16154941","6/12/2014 8:15 AM","Service","Edward Uriell","ediriell@polarcomm.com",,,,,,,,,,"Bursinger Travis",,
"Rydell Chevrolet Buick GMC Cadillac","1GNET16S546190240","16155511","6/10/2014 8:11 AM","Service","Todd Berning","tberning@iconarchitects.com",,,,,,,,,,"Ramberg Gary",,
"Rydell Chevrolet Buick GMC Cadillac","1G4HD57M29U129243","16155768","6/11/2014 8:05 AM","Service","Nancy Rice","nrice@aero.und.edu",,,,,,,,,,"Tyrrell John",,
"Rydell Chevrolet Buick GMC Cadillac","1G1YY26U665112842","16155661","6/10/2014 8:11 AM","Service","Michael Emmerich","dnh@aol.com",,,,,,,,,,"Ramberg Gary",,
"Rydell Chevrolet Buick GMC Cadillac","2G1WF52E459391741","19171212","6/11/2014 8:08 AM","Service","Heather Ward","heather_ward3@student.northlandcoll",,,,,,,,,,"Vacura Scott",,
"Rydell Chevrolet Buick GMC Cadillac","3GCUKSEC3EG164825","19171420","6/13/2014 8:21 AM","Service","Edward Lemar","eclemar@gra.midco.net",,"6/13/2014 6:30 PM","Y","5","10","I waas in and out  in very short order. The crew was very professional.","Yes","06/14/2014 11:10","Our team is very happy to hear about your excellent review and I hope we can continue to provide you with outstanding service.","Vacura Scott","06/20/2014","Pending"
"Rydell Chevrolet Buick GMC Cadillac","1G6DT57V980128663","16155925","6/12/2014 8:16 AM","Service","Terry Olson","tvodeo@yahoo.com",,,,,,,,,,"Tyrrell John",,
"Rydell Chevrolet Buick GMC Cadillac","2GNFLEEK5D6227536","16155118","6/13/2014 8:19 AM","Service","Kevin Litchy","dnh@aol.com",,,,,,,,,,"Dalen Ben",,
"Rydell Chevrolet Buick GMC Cadillac","2GTEK233991130586","16156109","6/14/2014 8:16 AM","Service","Cory Petry","chevysrock03@hotmail.com",,,,,,,,,,"T. Rodney",,
"Rydell Chevrolet Buick GMC Cadillac","3GTP2VE70CG308037","16155506","6/14/2014 8:16 AM","Service","Jeffrey Hoplin","jhoplin@alerusmail.com",,,,,,,,,,"T. Rodney",,
"Rydell Chevrolet Buick GMC Cadillac","2GCEK13M771641715","19171345","6/11/2014 8:10 AM","Service","Abraham Beneda","a_beneda@hotmail.com",,,,,,,,,,"Johnston Nick",,
"Rydell Chevrolet Buick GMC Cadillac","1GNDT13S642259721","16155790","6/11/2014 8:05 AM","Service","Carisa Thesing","carisa.thesing@gmail.com",,,,,,,,,,"Stinar Cory",,
"Rydell Chevrolet Buick GMC Cadillac","2G1WH55K959207485","19171143","6/11/2014 8:08 AM","Service","Ross Cariveau","dnh@yahoo.com",,,,,,,,,,"Collins Brian",,
"Rydell Chevrolet Buick GMC Cadillac","1G1AT58H597206558","19171249","6/11/2014 8:09 AM","Service","Debra West","dbwrlw@gra.midco.net",,,,,,,,,,"Johnston Nick",,
"Rydell Chevrolet Buick GMC Cadillac","2G1WT58K681249061","19171675","6/13/2014 8:24 AM","Service","Mark Swenson","mcswenson@gra.midco.net",,,,,,,,,,"Flikka Matt",,
"Rydell Chevrolet Buick GMC Cadillac","1GCEK29099Z220583","19171230","6/10/2014 8:11 AM","Service","Ronald Jasmer","ronjasmer@wsn.us.com",,,,,,,,,,"Robles Rudolph",,
"Rydell Chevrolet Buick GMC Cadillac","3GCUKREC2EG235103","19171471","6/13/2014 8:21 AM","Service","Dustin Hahn","dustin.hahn@cpsagu.com",,,,,,,,,,"Collins Brian",,
"Rydell Chevrolet Buick GMC Cadillac","1G4HD57217U119296","16155782","6/11/2014 8:05 AM","Service","Mackenzie Buchmann","sanbuchmann@gra.midco.net",,"6/11/2014 6:31 PM","Y","5","10","Rod Truftbroden (I know this is spelled wrong) was very kind and attentive while checking in the vehicle.  He is very good at his job.  I will definitely call Rod if/when I have a problem with my vehicle.","Yes","06/12/2014 03:00","Mackenzie, we sincerely appreciate your feedback. Each employee is a valued member of the Rydell Chevrolet Buick GMC Cadillac team and we all strive to provide excellent service! We look forward to seeing you again in the future. Thanks again!","T. Rodney","06/18/2014","Pending"
"Rydell Chevrolet Buick GMC Cadillac","1GCSKSE39AZ272318","19171448","6/11/2014 8:11 AM","Service","Jeremy Gapp","gapp407@hotmail.com",,,,,,,,,,"Collins Brian",,
"Rydell Chevrolet Buick GMC Cadillac","2GNFLNE51C6150589","19171462","6/11/2014 8:11 AM","Service","Darryl Lessard","none@yahoo.com",,,,,,,,,,"Vacura Scott",,
"Rydell Chevrolet Buick GMC Cadillac","1G1JC5SH4D4148638","19171193","6/11/2014 8:08 AM","Service","Daniel Burkhart","sensei_dan@hotmail.com",,,,,,,,,,"Vacura Scott",,
"Rydell Chevrolet Buick GMC Cadillac","1GNFK36389R281228","16156025","6/14/2014 8:16 AM","Service","Amy Ness","adn8486@gmail.com",,,,,,,,,,"Tyrrell John",,
"Rydell Chevrolet Buick GMC Cadillac","1G11C5SA5DF301129","19171220","6/11/2014 8:09 AM","Service","Janifer Georgeson","dnh@yahoo.com",,,,,,,,,,"Collins Brian",,
"Rydell Chevrolet Buick GMC Cadillac","1G6KD54YXXU775969","19171770","6/14/2014 8:17 AM","Service","Joan Gleason","ojgleason@yahoo.com",,,,,,,,,,"Tyrrell John",,
"Rydell Chevrolet Buick GMC Cadillac","2G1WB5E33D1177634","19171583","6/13/2014 8:23 AM","Service","Brian Raffety","raffety@gra.midco.net",,,,,,,,,,"Flikka Matt",,
"Rydell Chevrolet Buick GMC Cadillac","1G4HP52K35U285721","16155859","6/11/2014 8:06 AM","Service","Aaron Johnson","bemidjibeaver1@yahoo.com",,"6/12/2014 2:34 PM","N","5","10","Great service","",,,"Bursinger Travis","","Opt-Out"
"Rydell Chevrolet Buick GMC Cadillac","2G1WT57K391212424","19171551","6/12/2014 8:18 AM","Service","Jon Lampi","none@yahoo.com",,,,,,,,,,"Robles Rudolph",,
"Rydell Chevrolet Buick GMC Cadillac","2G1WT57N991167208","19171575","6/13/2014 8:22 AM","Service","Tammie Hjelmstad","tlhjelmstad@yahoo.com",,,,,,,,,,"Robles Rudolph",,
"Rydell Chevrolet Buick GMC Cadillac","2G1WB5E39C1185557","19171378","6/11/2014 8:10 AM","Service","Janet Amiot","jmamiot@hotmail.com",,,,,,,,,,"Johnston Nick",,
"Rydell Chevrolet Buick GMC Cadillac","2GNFLEEK7D6416866","19171435","6/11/2014 8:10 AM","Service","Kyle Pietruszewski","k_piet50@hotmail.com",,,,,,,,,,"Flikka Matt",,
"Rydell Chevrolet Buick GMC Cadillac","1GNDT13W32K219886","16155964","6/12/2014 8:16 AM","Service","Richard Asche","yoaschey@aol.com",,,,,,,,,,"Tyrrell John",,
"Rydell Chevrolet Buick GMC Cadillac","3GCPKTE39BG249795","16155762","6/12/2014 8:16 AM","Service","Rodney Beiswenger","beisrodn@rrv.net",,,,,,,,,,"Ramberg Gary",,
"Rydell Chevrolet Buick GMC Cadillac","3GTRKVE30AG204490","16155401","6/13/2014 8:19 AM","Service","Donald Emery","eme@wiktel.com",,,,,,,,,,"Ramberg Gary",,
"Rydell Chevrolet Buick GMC Cadillac","3GCEK13367G532645","19171670","6/13/2014 8:24 AM","Service","David Godfread","dgodfread@gmail.com",,,,,,,,,,"Johnston Nick",,
"Rydell Chevrolet Buick GMC Cadillac","1GT125E85CF225378","19171654","6/13/2014 8:23 AM","Service","Terry Tennison","tennison@polarcomm.com",,,,,,,,,,"Collins Brian",,
"Rydell Chevrolet Buick GMC Cadillac","1GKKVRKD5DJ158241","16155272","6/13/2014 8:19 AM","Service","Sarah Oliver","edoliver@me.com",,,,,,,,,,"T. Rodney",,
"Rydell Chevrolet Buick GMC Cadillac","1G1AL55F467764836","16155381","6/13/2014 8:19 AM","Service","Jon Failing","rachel.failing.2@gmail.com",,,,,,,,,,"Ramberg Gary",,
"Rydell Chevrolet Buick GMC Cadillac","2GNALDEK0C1298627","16155535","6/13/2014 8:20 AM","Service","Kathrine Bohlman","kbohlman@polarcomm.com",,,,,,,,,,"T. Rodney",,
"Rydell Chevrolet Buick GMC Cadillac","1GNLVFED2AJ198550","19171477","6/13/2014 8:21 AM","Service","Mark Howes","mhowes@goculinex.com",,"6/13/2014 8:25 AM","Y","5","10","Gary Ramberg does an outstanding job for me!!!","Yes","06/14/2014 01:02","Thank you for the positive feedback!","Berg Stephen","06/19/2014","Pending"
"Rydell Chevrolet Buick GMC Cadillac","2CNDL73FX76091017","19171528","6/13/2014 8:22 AM","Service","Julie Knutson","bugstop@zoho.com",,,,,,,,,,"Berg Stephen",,
"Rydell Chevrolet Buick GMC Cadillac","1G1ND52F75M150673","19171011","6/11/2014 8:06 AM","Service","Nahid Butz","nahid.khatibi65@gmail.com",,,,,,,,,,"Robles Rudolph",,
"Rydell Chevrolet Buick GMC Cadillac","1GNEK13R0VJ383088","16155671","6/10/2014 8:11 AM","Service","Jorge Saenz","krobretie66@yahoo.com",,,,,,,,,,"Tyrrell John",,
"Rydell Chevrolet Buick GMC Cadillac","3GCUKREC7EG231306","16155854","6/12/2014 8:16 AM","Service","Richard West","rewest@polarcomm.com",,"6/12/2014 3:22 PM","Y","5","10","They checked out my pickup recall and also checked out a smell in the motor area, which was taken care of.","Yes","06/13/2014 07:41","We're so happy to hear that you had a positive experience.  We look forward to continuing to work with you.","Bursinger Travis","06/19/2014","Pending"
"Rydell Chevrolet Buick GMC Cadillac","3GCUKRECXEG333814",,"6/11/2014 10:11 AM","Sales","Matthew Thompson","sycowhiteboy@hotmail.com",,,,,,,,,,"Garceau Joe",,
"Rydell Chevrolet Buick GMC Cadillac","3GTU2UECXEG347246","16154677","6/13/2014 8:19 AM","Service","Conrad Dietzler","dietzler_honey36@hotmail.com",,,,,,,,,,"Dalen Ben",,
"Rydell Chevrolet Buick GMC Cadillac","1GC1KVCG3BF133128","19171245","6/11/2014 8:09 AM","Service","Jordan Hansen","craftmasters701@yahoo.com",,,,,,,,,,"Robles Rudolph",,
"Rydell Chevrolet Buick GMC Cadillac","1GCVKREC6EZ309191",,"6/11/2014 10:11 AM","Sales","Mitzi Gregg","mgregg26@gmail.com",,"6/11/2014 4:36 PM","N","5","10","I had went to many dealerships before going to Rydel , Nick Walker was the first salesman that came out on the lot to help me. He was very easy to.talk to & if I had a question he would answer it right away or call someone who he knew could answer it.. ","",,," ","","Opt-Out"
"Rydell Chevrolet Buick GMC Cadillac","1GCHK23162F205447","16155799","6/11/2014 8:05 AM","Service","Ryan Drees","rdrees1500@me.com",,,,,,,,,,"Kruse Kalissa",,
"Rydell Chevrolet Buick GMC Cadillac","3GYFNFEY5AS635233","16155689","6/10/2014 8:11 AM","Service","Mary Olson","dkolson@polarcomm.com",,"6/10/2014 9:04 AM","Y","5","10","They were prompt and answered all my questions in a timely manner. Thanks","Yes","06/10/2014 11:54","Our team is very happy to hear about your excellent review and I hope we can continue to provide you with outstanding service.","T. Rodney","06/16/2014","Pending"
"Rydell Chevrolet Buick GMC Cadillac","3GCPKSE75DG363826","19171416","6/11/2014 8:10 AM","Service","Bruce Nord","ozzie@bclean.com",,,,,,,,,,"Robles Rudolph",,
"Rydell Chevrolet Buick GMC Cadillac","1GTR2VE73CZ298127","19171553","6/13/2014 8:22 AM","Service","Lee Menzies","menzies@polarcomm.com",,,,,,,,,,"Flikka Matt",,
"Rydell Chevrolet Buick GMC Cadillac","2CNFLGE55B6294662","19171162","6/11/2014 8:08 AM","Service","Barbara Brandvold","bjbrand@polarcomm.com",,,,,,,,,,"Robles Rudolph",,
"Rydell Chevrolet Buick GMC Cadillac","1G11C5SA7DF215658","19171214","6/11/2014 8:08 AM","Service","Debra Nissen","dsnisse@wiktel.com",,,,,,,,,,"Collins Brian",,
"Rydell Chevrolet Buick GMC Cadillac","1GKEK13Z62R187442","19171216","6/11/2014 8:08 AM","Service","Lisa Beaver","geolmp@aol.com",,,,,,,,,,"Collins Brian",,
"Rydell Chevrolet Buick GMC Cadillac","2G1WT58K069404072","16155728","6/10/2014 8:11 AM","Service","Julie Rage","julier@gra.midco.net",,,,,,,,,,"Tyrrell John",,
"Rydell Chevrolet Buick GMC Cadillac","1G1ZC5E12BF187991","19171293","6/11/2014 8:09 AM","Service","Nakeisha Johnson","nakeisha4454@yahoo.com",,,,,,,,,,"Johnston Nick",,
"Rydell Chevrolet Buick GMC Cadillac","2G4WE587281128486","16155262","6/12/2014 8:16 AM","Service","Bonnie Gustafson","bcgustafson1@aol.com",,"6/12/2014 8:12 PM","N","5","10","John and Rod were very helpful in arranging for my vehicle repairs, and it was very much appreciated.  Very personable making it a pleasant experience.","",,,"T. Rodney","","Opt-Out"
"Rydell Chevrolet Buick GMC Cadillac","1G11C5SA1DF357696","19171200","6/11/2014 8:08 AM","Service","Alisha Zejdlik","alishazejdlik@gmail.com",,,,,,,,,,"Vacura Scott",,
"Rydell Chevrolet Buick GMC Cadillac","1GNFK23019R237317","19171030","6/11/2014 8:07 AM","Service","William Mack","mariemack@mail.und.nodak.edu",,,,,,,,,,"Vacura Scott",,
"Rydell Chevrolet Buick GMC Cadillac","1G11C5SL6EF125226","19171177","6/12/2014 8:18 AM","Service","Samantha Rislove","samanthrislove@yahoo.com",,,,,,,,,,"Vacura Scott",,
"Rydell Chevrolet Buick GMC Cadillac","1GKS2KE72DR338008","19171687","6/13/2014 8:24 AM","Service","Amy Carroll","dnh@yahoo.com",,,,,,,,,,"Johnston Nick",,
"Rydell Chevrolet Buick GMC Cadillac","1GKS2MEF6BR179302","16155950","6/12/2014 8:16 AM","Service","Jacqueline Petersen","trpeter@hotmail.com",,,,,,,,,,"T. Rodney",,
"Rydell Chevrolet Buick GMC Cadillac","3GCUKREC0EG457719","16155255","6/13/2014 8:19 AM","Service","Don Purpur","wng@aol.com",,,,,,,,,,"Ramberg Gary",,
"Rydell Chevrolet Buick GMC Cadillac","1G6KE57YX1U131887","19171543","6/13/2014 8:22 AM","Service","Robert Weiland","rweiland@gra.midco.net",,,,,,,,,,"Berg Stephen",,
"Rydell Chevrolet Buick GMC Cadillac","1G6KD57Y48U194397","16154561","6/9/2014 8:09 AM","Service","Keith Finney","kfinney@polarcomm.com",,,,,,,,,,"Maro Nick",,
"Rydell Chevrolet Buick GMC Cadillac","1GNEK13T91J102427","19171330","6/11/2014 8:10 AM","Service","Ben Hoiland","bhoiland21@hotmail.com",,,,,,,,,,"Collins Brian",,
"Rydell Chevrolet Buick GMC Cadillac","1GCVKREC1EZ143422","16155502","6/13/2014 8:20 AM","Service","Kris Paulson","kris_paulson@hotmail.com",,,,,,,,,,"Dalen Ben",,
"Rydell Chevrolet Buick GMC Cadillac","1GNLVFED1AJ208405","16153452","6/12/2014 8:15 AM","Service","Steven Westereng","srwest@gra.midco.net",,,,,,,,,,"Ramberg Gary",,
"Rydell Chevrolet Buick GMC Cadillac","1G6KH5E68BU126021","19171511","6/13/2014 8:22 AM","Service","Donald Heier","djhi@infionline.net",,,,,,,,,,"Johnston Nick",,
"Rydell Chevrolet Buick GMC Cadillac","2GTEK19TX31411319","19171706","6/13/2014 8:24 AM","Service","Cathy Brooks","wng@aol.com",,,,,,,,,,"Collins Brian",,
"Rydell Chevrolet Buick GMC Cadillac","2CNDL23F456023683","16155257","6/13/2014 8:19 AM","Service","Tina Hartel","tinacat79@gmail.com",,,,,,,,,,"Ramberg Gary",,
"Rydell Chevrolet Buick GMC Cadillac","1G1ZD5E09CF314547","19171116","6/11/2014 8:07 AM","Service","Phil Schroeder","dnh@yahoo.com",,,,,,,,,,"Collins Brian",,
"Rydell Chevrolet Buick GMC Cadillac","2G1155S38E9105286","19171077","6/12/2014 8:17 AM","Service","David Mozinski","davidh_41@msn.com",,,,,,,,,,"Berg Stephen",,
"Rydell Chevrolet Buick GMC Cadillac","1GKET12M356157761","19171535","6/13/2014 8:22 AM","Service","Dan Stinar","dstinar03@hotmail.com",,,,,,,,,,"Robles Rudolph",,
"Rydell Chevrolet Buick GMC Cadillac","1G1ZT58F47F118122","19171320","6/11/2014 8:09 AM","Service","Elizabeth Boushey","elizabethboushey@gmail.com",,,,,,,,,,"Collins Brian",,
"Rydell Chevrolet Buick GMC Cadillac","3GNFK12397G267636","19171253","6/11/2014 8:09 AM","Service","Mike O'keefe","speedee17@hotmail.com",,,,,,,,,,"Berg Stephen",,
"Rydell Chevrolet Buick GMC Cadillac","1GKDT13S822448476","19171136","6/11/2014 8:08 AM","Service","Mike Hagen","hagen@gra.midco.net",,,,,,,,,,"Robles Rudolph",,
"Rydell Chevrolet Buick GMC Cadillac","3GTU2VEC5EG480986",,"6/9/2014 8:01 AM","Sales","Mandy Hagen","pasinc@polarcomm.com",,,,,,,,,,"Pearson Scott",,
"Rydell Chevrolet Buick GMC Cadillac","1G1PE5SC4C7114365","19170896","6/12/2014 8:17 AM","Service","Cassel Everson","castle.everson@gfschools.org",,,,,,,,,,"Robles Rudolph",,
"Rydell Chevrolet Buick GMC Cadillac","2GNFLFEK2E6321736",,"6/9/2014 8:00 AM","Sales","Ashley Williams","ashley.m.williams@mayvillestate.edu",,"6/9/2014 2:31 PM","N","5","10","The service was quick, easy, friendly and great pricing. ","",,,"Pearson Scott","","Opt-Out"
"Rydell Chevrolet Buick GMC Cadillac","1GTR2VE76DZ234990","19171238","6/12/2014 8:18 AM","Service","Robert Zerr","wng@aol.com",,,,,,,,,,"Johnston Nick",,
"Rydell Chevrolet Buick GMC Cadillac","3GNAL2EK6DS608502","19171029","6/12/2014 8:17 AM","Service","Kelli Slominski","kelli.slominski@midwayschools.com",,,,,,,,,,"Berg Stephen",,
"Rydell Chevrolet Buick GMC Cadillac","3GNDA23P76S622753","16155707","6/12/2014 8:16 AM","Service","Rose Hanson","rosebud42002@yahoo.com",,,,,,,,,,"Tyrrell John",,
"Rydell Chevrolet Buick GMC Cadillac","1G4HP57267U226125","19171503","6/13/2014 8:22 AM","Service","Allyn Marifjeren","leeallyn@webtv.com",,,,,,,,,,"Robles Rudolph",,
"Rydell Chevrolet Buick GMC Cadillac","5GAER23748J213119","19171065","6/11/2014 8:07 AM","Service","David Garton","siouxfan@gmail.com",,"6/11/2014 3:44 PM","N","4","8","I received great service!","",,,"Robles Rudolph","","Opt-Out"
"Rydell Chevrolet Buick GMC Cadillac","1GNSKCE06ER216359","19171552","6/13/2014 8:22 AM","Service","Barb Ross","bjrbigsky@yahoo.com",,"6/13/2014 6:34 PM","N","5","10","Very personal service from Nick J.  answered my questions and was very patient and kind.","",,,"Johnston Nick","","Opt-Out"
"Rydell Chevrolet Buick GMC Cadillac","1GCEK19T01E191975","19171049","6/11/2014 8:07 AM","Service","Andrew Capouch","dnh@yahoo.com",,,,,,,,,,"Collins Brian",,
"Rydell Chevrolet Buick GMC Cadillac","1GNDT13S952325034","16155885","6/12/2014 8:16 AM","Service","Brian Ljunggren","bljungg@gra.midco.net",,,,,,,,,,"Ramberg Gary",,
"Rydell Chevrolet Buick GMC Cadillac","2G1WF52E439354976","19171274","6/11/2014 8:09 AM","Service","Monte Gregoire","mgreg@wiktel.com",,,,,,,,,,"Johnston Nick",,
"Rydell Chevrolet Buick GMC Cadillac","3GTP2VE79CG125106","16155374","6/13/2014 8:19 AM","Service","Raymond Stancyk","stancyk_21@hotmail.com",,,,,,,,,,"Bursinger Travis",,
"Rydell Chevrolet Buick GMC Cadillac","1GNDT13S342373143","19171696","6/13/2014 8:24 AM","Service","Samuel Kennedy","samshar@polarcomm.com",,,,,,,,,,"Collins Brian",,
"Rydell Chevrolet Buick GMC Cadillac","2GCEK13Z661262182","19171145","6/11/2014 8:08 AM","Service","George Cruz","cruzes@wiktel.com",,,,,,,,,,"Collins Brian",,
"Rydell Chevrolet Buick GMC Cadillac","5GAER23768J258093","19170480","6/6/2014 8:06 AM","Service","David Debell","djdb525@hotmail.com",,"6/10/2014 9:37 AM","Y","2","3","The vehicle was presented to the Service Dept. for regular maintenance. No major repairs were required. (An oil change, filter, computer reset, etc.) After the service was done, of the two Climate-control Systems in the vehicle, the Front System no longer operated, at all. (Only the Rear System functioned; when both systems fully operated before this service visit. A call to the Service Department, to report the issue, resulted in responses to the effect, ""'Nice Care' doesn't cover the air conditioner"", and they said it would be 120 to get it looked at.) (Only looked at?)  The man on the other end of the phone was asked why an air conditioner worked when I went in and then, after an oil change and computer reset the system suddenly did not work; and he's like, ""I have no idea"". Upon retrospect, I feel an electrical connection may have been uncoupled, and may just need reconnection. But in association with the timing of the service, a shrugging-off should, certainly, not have been the response we received! My confidence in this particular Rydell Center was monumental before this. Now, I am frightened it may just be another unscrupulous mechanic's hive! (One is reminded of horror stories of mechanics deliberately causing potential failures in customers' vehicles, in order to generate future revenue from unnecessary service work). This customer lives in this region of the country because of a sensitivity to heat. Air conditioners are as much a necessity as water.","Yes","06/12/2014 10:07","We would like to speak with you directly so that we can address your concerns. Please call us at 701.757.5886 so that we can fix these issues.","Johnston Nick","06/16/2014","Pending"
"Rydell Chevrolet Buick GMC Cadillac","1GTEK19J07Z584908","19171623","6/13/2014 8:23 AM","Service","James Foster","foster@medicine.nodak.edu",,,,,,,,,,"Berg Stephen",,
"Rydell Chevrolet Buick GMC Cadillac","1GA2GYDG1A1107315","16155571","6/13/2014 8:20 AM","Service","Alyssa Mathis","damathis@gra.midcomet",,,,,,,,,,"T. Rodney",,
"Rydell Chevrolet Buick GMC Cadillac","1GCRKSE78CZ326423","19171051","6/11/2014 8:07 AM","Service","Bruce Kalliokoski","horses_07@hotmail.com",,,,,,,,,,"Collins Brian",,
"Rydell Chevrolet Buick GMC Cadillac","1GNDT13SX22518899","19171110","6/11/2014 8:07 AM","Service","Jean Youshefski","jyoushefski@att.net",,,,,,,,,,"Robles Rudolph",,
"Rydell Chevrolet Buick GMC Cadillac","1G1PJ5SC2C7401182","16155669","6/13/2014 8:20 AM","Service","Robert Tollefson","text.tollefson@gmail.com",,,,,,,,,,"T. Rodney",,
"Rydell Chevrolet Buick GMC Cadillac","2GCEK19R9V1130216","16156002","6/13/2014 8:20 AM","Service","Dana Plorin","bigrig09@hotmail.com",,,,,,,,,,"Tyrrell John",,
"Rydell Chevrolet Buick GMC Cadillac","2GCEK19T451146335","19171561","6/13/2014 8:22 AM","Service","Daniel Hinnenkamp","dkamp@gra.midco.net",,"6/13/2014 6:46 PM","Y","5","5","I hate to wait in line when vehicles that arrive after me get in before me. I know about the ""make a date"". I tried that last Monday, but Monday (June 9) wasn't available on the web site when I checked on Sunday night (June 8). I wish those who just want an oil change could come in and get it.  I waited behind a truck that needed the tires rotated while the kid changing tires lost a lug nut. Thanks, Dan","Yes","06/14/2014 11:18","Daniel, thank you for this information. We appreciate your business and will be sure to share your comments with our team.  We hope to see you in the future, and please don't hesitate to contact us to discuss your comments in greater detail.  Thanks again.","Robles Rudolph","06/20/2014","Pending"
"Rydell Chevrolet Buick GMC Cadillac","1G11B5SA0DF337376","16155499","6/13/2014 8:20 AM","Service","Deborah Fontaine","furrybunnies@hotmial.com",,,,,,,,,,"Dalen Ben",,
"Rydell Chevrolet Buick GMC Cadillac","1GTR2VE34BZ273099","19171354","6/11/2014 8:10 AM","Service","David Maszk","dianna.maszk@gmail.com",,,,,,,,,,"Berg Stephen",,
"Rydell Chevrolet Buick GMC Cadillac","3GNFK12387G257759","19171558","6/13/2014 8:22 AM","Service","Janie Aleman","jma_31_2011@hotmail.com",,,,,,,,,,"Robles Rudolph",,
"Rydell Chevrolet Buick GMC Cadillac","1GNEK13T4YJ139413","19171102","6/11/2014 8:07 AM","Service","Marlon Kasowski","buck.kasowski@gfschools.org",,,,,,,,,,"Robles Rudolph",,
"Rydell Chevrolet Buick GMC Cadillac","3GCUKREH0EG304091","19171092","6/12/2014 8:17 AM","Service","Charles Porter","candy040177@yahoo.com",,,,,,,,,,"Collins Brian",,
"Rydell Chevrolet Buick GMC Cadillac","1GYS4BEF0DR239176","19171549","6/13/2014 8:22 AM","Service","Lila Prigge","brena.amberlin@gmail.com",,,,,,,,,,"Flikka Matt",,
"Rydell Chevrolet Buick GMC Cadillac","1GNKVGED7BJ393529","19171319","6/11/2014 8:09 AM","Service","Robert Carlson","skybob@q.com",,,,,,,,,,"Flikka Matt",,
"Rydell Chevrolet Buick GMC Cadillac","2G4WC582081156667","16155395","6/11/2014 8:05 AM","Service","Ernie Misialek","dnh@aol.com",,,,,,,,,,"Bursinger Travis",,
"Rydell Chevrolet Buick GMC Cadillac","1GNSKCKC3FR143080",,"6/13/2014 8:02 AM","Sales","Kermit Rollefstad","kermit@polarcomm.com",,"6/13/2014 6:39 PM","Y","5","10","Our sales person was able to answer all of our questions and handled the transaction promptly and checked for all rebates that we had for the deal.","Yes","06/14/2014 11:18","Thank you for setting time aside to let us know how we're doing. We appreciate the feedback and look forward to seeing you again!","Kvasager Robert","06/20/2014","Pending"
"Rydell Chevrolet Buick GMC Cadillac","1G1ND52F54M570723","19171298","6/10/2014 8:11 AM","Service","Dharma Acharya","noradpokhrel42@yahoo.com",,,,,,,,,,"Vacura Scott",,
"Rydell Chevrolet Buick GMC Cadillac","1GNDT13S732350866","16156053","6/13/2014 8:21 AM","Service","Dusty Howlett","wng@yahoo.com",,,,,,,,,,"Kruse Kalissa",,
"Rydell Chevrolet Buick GMC Cadillac","1G1JC5SH5E4139609",,"6/13/2014 8:02 AM","Sales","Jessica Kobetsky","kobetsky20@hotmail.com",,,,,,,,,,"Preston Aj",,
"Rydell Chevrolet Buick GMC Cadillac","1G1AL55F667626666","16155697","6/13/2014 8:20 AM","Service","Leticia Kuglin","wng@aul.com",,,,,,,,,,"T. Rodney",,
"Rydell Chevrolet Buick GMC Cadillac","2G1FK3DJ0C9103950","18030089","6/12/2014 8:17 AM","Service","Gerald Brorby","jbrorby@charter.net",,,,,,,,,,"Lueker David",,
"Rydell Chevrolet Buick GMC Cadillac","1GNSKCE06DR263468","19171399","6/11/2014 8:10 AM","Service","Joann Olson","jsimmons@polarcomm.com",,,,,,,,,,"Johnston Nick",,
"Rydell Chevrolet Buick GMC Cadillac","2G1WC5E32C1330273","19171129","6/12/2014 8:17 AM","Service","Marilyn Sayler","marilynsayler@hotmail.com",,,,,,,,,,"Robles Rudolph",,
"Rydell Chevrolet Buick GMC Cadillac","1G4HP54K1Y4215703","16155663","6/10/2014 8:11 AM","Service","Ardell Zejdlik","aszejdlik@yahoo.com",,,,,,,,,,"Tyrrell John",,
"Rydell Chevrolet Buick GMC Cadillac","1GKS2MEF5ER232611",,"6/12/2014 8:01 AM","Sales","Mandi Johnson","mljohnson@medicare.nodak.edu",,,,,,,,,,"Hanson Brett",,
"Rydell Chevrolet Buick GMC Cadillac","3GCUKSEC4EG270992","19171411","6/13/2014 8:21 AM","Service","Joseph Garceau","joe.garceau@hotmail.com",,,,,,,,,,"Johnston Nick",,
"Rydell Chevrolet Buick GMC Cadillac","3GCUKSEC4EG375421","16155648","6/9/2014 8:09 AM","Service","Mike Haddican","haddican@rosenet.net",,,,,,,,,,"Dalen Ben",,
"Rydell Chevrolet Buick GMC Cadillac","KL1TD56E89B336943","19171056","6/11/2014 8:07 AM","Service","Elsie Coulter","dnh@aol.com",,,,,,,,,,"Robles Rudolph",,
"Rydell Chevrolet Buick GMC Cadillac","1G4HR54K55U203012","19171255","6/11/2014 8:09 AM","Service","Stanley Jaeger","dnh@aol.com",,,,,,,,,,"Johnston Nick",,
"Rydell Chevrolet Buick GMC Cadillac","2G1FT1EW6A9133656","19171305","6/11/2014 8:09 AM","Service","David Collins","dcollins@gra.midco.net",,,,,,,,,,"Robles Rudolph",,
"Rydell Chevrolet Buick GMC Cadillac","1GTSKVE33AZ130628","16156080","6/14/2014 8:16 AM","Service","Terry Dvorak","dvorak@mstgf.com",,,,,,,,,,"Champagne Leslie",,
"Rydell Chevrolet Buick GMC Cadillac","1G1AT18H197126506","16155053","6/13/2014 8:19 AM","Service","Amanda Dahl","amandaweigand218@gmail.com",,,,,,,,,,"Bursinger Travis",,
"Rydell Chevrolet Buick GMC Cadillac","1GKS2BKC7FR115502","16156098","6/14/2014 8:16 AM","Service","Dean Gorder","gorder@gra.midco.net",,"6/14/2014 5:34 PM","Y","5","10","Only issue is too long of a lead time. Most people cannot go a week to schedule an appointment","Yes","06/15/2014 02:14","We would like to thank you for sharing this feedback. Dean, we appreciate your feedback as it helps us grow as a dealership and we will be sharing your comments with our team.","Bursinger Travis","06/23/2014","Pending"
"Rydell Chevrolet Buick GMC Cadillac","1GKS2MEF7BR329840","19171574","6/13/2014 8:22 AM","Service","Kurt Borg","keborg@gra.midco.net",,,,,,,,,,"Johnston Nick",,
"Rydell Chevrolet Buick GMC Cadillac","3GTP2WE75CG221577","16155921","6/12/2014 8:16 AM","Service","Steve Spicer Supplies Unlimited","sspicer@qwestoffice.net",,,,,,,,,,"Tyrrell John",,
"Rydell Chevrolet Buick GMC Cadillac","1GKFK16377J295716","19171248","6/11/2014 8:09 AM","Service","Robert Powers","rpowers@crystalsugar.com",,,,,,,,,,"Johnston Nick",,
"Rydell Chevrolet Buick GMC Cadillac","3GCUKREC1EG236288","16155902","6/12/2014 8:16 AM","Service","Rithy Michael Yem","rithy.yem@gmail.com",,,,,,,,,,"Tyrrell John",,
"Rydell Chevrolet Buick GMC Cadillac","1GNEK13R9XJ569991","19171485","6/13/2014 8:21 AM","Service","Gale/Wendy Mayer","wmayer928@gmail.com",,,,,,,,,,"Berg Stephen",,
"Rydell Chevrolet Buick GMC Cadillac","1G1JC5SH4E4124065","18030029","6/14/2014 8:17 AM","Service","Donna Jeannotte","autmn33@yahoo.com",,,,,,,,,,"Ostlund Anne",,
"Rydell Chevrolet Buick GMC Cadillac","1GNKVLKD4DJ123402","19171028","6/12/2014 8:17 AM","Service","Jerod Hjelle","jerod@innesconstruction.com",,,,,,,,,,"Lemar Brennan",,
"Rydell Chevrolet Buick GMC Cadillac","1G1ZS58FX7F106771","16155678","6/11/2014 8:05 AM","Service","Phyllis Asmus","pasmus@yahoo.com",,,,,,,,,,"Ramberg Gary",,
"Rydell Chevrolet Buick GMC Cadillac","1GKFK16Z25J107119","16155984","6/14/2014 8:16 AM","Service","Rodell Ottum","rottum@altru.org",,,,,,,,,,"Bursinger Travis",,
"Rydell Chevrolet Buick GMC Cadillac","1GNKVJKD9DJ242535","19171652","6/13/2014 8:23 AM","Service","William Gregory","irishphoenix@gmail.com",,,,,,,,,,"Robles Rudolph",,
"Rydell Chevrolet Buick GMC Cadillac","1G6AG5RX1D0126325","19171469","6/13/2014 8:21 AM","Service","Lorraine Lindquist","lmlindquist2000@yahoo.com",,"6/13/2014 8:30 AM","N","3","7","The gentleman who oversaw my car oil change brought to my attention that one of lights above the back license plate was out. He said I only needed one light to be legal and was not necessary to have it changed today. I said I would like it changed  and he said that he was not sure if my warranty on my 2013 Cadillac would cover it. I asked him to look into it. He said he looked into it and no it was not covered.  I said How much then because I want it changed. He said a couple of dollars. It ended up being over 9.00.  I got the impression that he did not want to change the bulb and did not want to take the time to understand what bumper to bumper coverage entailed on a 2013 Cadillac.  I paid it and came back the next day because the light was hanging out of the back where they changed the bulb and was reimbursed for the light bulb because it was covered under my warranty.  ","",,,"Collins Brian","","Opt-Out"
"Rydell Chevrolet Buick GMC Cadillac","1G4HD57217U129617","19171247","6/11/2014 8:09 AM","Service","Kenneth Wiesen","kwiesen@gra.midco.net",,,,,,,,,,"Robles Rudolph",,
"Rydell Chevrolet Buick GMC Cadillac","2G1WX15KX29277407","16155643","6/9/2014 8:09 AM","Service","Allen Lafferty","allenlaffery@yahoo.com",,,,,,,,,,"Ramberg Gary",,
"Rydell Chevrolet Buick GMC Cadillac","2G4GR5ER4C9150627","19171191","6/11/2014 8:08 AM","Service","Brian Lee","tricatz@midco.net",,,,,,,,,,"Collins Brian",,
"Rydell Chevrolet Buick GMC Cadillac","3GCEK33399G285667","16155568","6/10/2014 8:11 AM","Service","Ron Albaugh","dnh@aol.com",,,,,,,,,,"Ramberg Gary",,
"Rydell Chevrolet Buick GMC Cadillac","1GNEK13R5VJ345100","16156082","6/14/2014 8:16 AM","Service","Stephen Rood","srood@altru.org",,,,,,,,,,"T. Rodney",,
"Rydell Chevrolet Buick GMC Cadillac","2G61W5S87E9209545","19171256","6/13/2014 8:21 AM","Service","Deborah Bakken","debbie@protransport.net",,,,,,,,,,"Johnston Nick",,
"Rydell Chevrolet Buick GMC Cadillac","1GKFK638X8J172717","16154576","6/12/2014 8:15 AM","Service","William Hagen","whagen@gramidco.net",,,,,,,,,,"Stinar Cory",,
"Rydell Chevrolet Buick GMC Cadillac","2GNFLNEK6C6219119","19171638","6/13/2014 8:23 AM","Service","Calvin Pecka","wng@aol.com",,,,,,,,,,"Berg Stephen",,
"Rydell Chevrolet Buick GMC Cadillac","2GNFLFEK7E6285297",,"6/9/2014 8:01 AM","Sales","Tianna Wilhelmi","tiannawilhelmi@gmail.com",,"6/9/2014 8:14 AM","N","5","10","Joe Garceau was great with helping me in a timely manner and keeping in contact with me.  Joe helped me get a great deal on an awesome car that I could afford.  I was happy to see that my credit score helped me get a more affordable deal.   I am very happy with the service, and with my Equinox.  I am happy that I decided to lease.","",,,"Garceau Joe","","Opt-Out"
"Rydell Chevrolet Buick GMC Cadillac","2G1WC5E35D1255408","19171505","6/13/2014 8:22 AM","Service","Norman Paulson","nep@polarcomm.com",,,,,,,,,,"Berg Stephen",,
"Rydell Chevrolet Buick GMC Cadillac","3GCUKSEC5EG222353","19171275","6/12/2014 8:18 AM","Service","Robert Geddes","none@yahoo.com",,,,,,,,,,"Robles Rudolph",,
"Rydell Chevrolet Buick GMC Cadillac","3GKFK16Z24G228412","19171130","6/11/2014 8:08 AM","Service","Katie Gray","mygirlsmother@hotmail.com",,,,,,,,,,"Collins Brian",,
"Rydell Chevrolet Buick GMC Cadillac","5GAKRBED8BJ339934","16155787","6/12/2014 8:16 AM","Service","Arlen Erickson","loiserickson@hotmail.com",,"6/13/2014 7:07 PM","N","5","10","Great experience and everything was on time.","",,,"T. Rodney","","Opt-Out"
"Rydell Chevrolet Buick GMC Cadillac","1G1AT58H497106354","19171020","6/11/2014 8:07 AM","Service","Joff Thompson","wng@aol.com",,,,,,,,,,"Johnston Nick",,
"Rydell Chevrolet Buick GMC Cadillac","1G6KD54Y8XU774593","16156193","6/14/2014 8:17 AM","Service","William Heimer","bill.heimer@mail.com",,,,,,,,,,"Kruse Kalissa",,
"Rydell Chevrolet Buick GMC Cadillac","2G1WT58K081257852","19171474","6/13/2014 8:21 AM","Service","Mike Peyton","msp1958@hotmail.com",,,,,,,,,,"Robles Rudolph",,
"Rydell Chevrolet Buick GMC Cadillac","2G1WU581X69196688","19171013","6/11/2014 8:06 AM","Service","Robert Dusso","bfacqa@hotmail.com",,,,,,,,,,"Johnston Nick",,
"Rydell Chevrolet Buick GMC Cadillac","3GNFK12308G267056","18029996","6/11/2014 8:06 AM","Service","Shay Hartvickson","shay.hartvickson@und.nodak.edu",,,,,,,,,,"Evavold Daniel",,
"Rydell Chevrolet Buick GMC Cadillac","3GCUKREC5EG185443","16155522","6/13/2014 8:20 AM","Service","Kevin Kirkeby","kkirkeby@nd.com",,,,,,,,,,"Ramberg Gary",,
"Rydell Chevrolet Buick GMC Cadillac","1G1115SL6EU124028","19171536","6/13/2014 8:22 AM","Service","Marlin Torkelson","marlint@hotmail.com",,,,,,,,,,"Johnston Nick",,
"Rydell Chevrolet Buick GMC Cadillac","1G1ZE5E18BF186483","19171604","6/13/2014 8:23 AM","Service","Michael Peyton","msp1958@hotmail.com",,,,,,,,,,"Berg Stephen",,
"Rydell Chevrolet Buick GMC Cadillac","3GCUKSEJ0EG455894",,"6/13/2014 8:02 AM","Sales","Michael Miller","millerelectric@frontier.com",,,,,,,,,,"Kvasager Robert",,
"Rydell Chevrolet Buick GMC Cadillac","5GADV33L85D270637","16154912","6/11/2014 8:05 AM","Service","Briana Theisen","briana.theisen@email.und.edu",,,,,,,,,,"Stinar Cory",,
"Rydell Chevrolet Buick GMC Cadillac","1G1AL58F077362616","16155688","6/13/2014 8:20 AM","Service","Suzie Kartes","suzie.kartes@hotmail.com",,,,,,,,,,"Ramberg Gary",,
"Rydell Chevrolet Buick GMC Cadillac","5GAKVDKD0DJ240510","19171053","6/11/2014 8:07 AM","Service","Ruth Nielsen","dnh@yahoo.com",,,,,,,,,,"Collins Brian",,
"Rydell Chevrolet Buick GMC Cadillac","1G1ZC5E06AF322007","19171643","6/13/2014 8:23 AM","Service","Teresa Larson","teresa.larson@simplot.com",,,,,,,,,,"Flikka Matt",,
"Rydell Chevrolet Buick GMC Cadillac","1GNALBEK8DZ123104","19171087","6/11/2014 8:07 AM","Service","Kurtis Lovaasen","icend@polarcomm.com",,,,,,,,,,"Johnston Nick",,
"Rydell Chevrolet Buick GMC Cadillac","2CNDL23F976056360","16156079","6/13/2014 8:21 AM","Service","Edmee Behm","mango59@frontiernet.net",,,,,,,,,,"Champagne Leslie",,
"Rydell Chevrolet Buick GMC Cadillac","2CNFLEEW8A6308498","16155672","6/12/2014 8:16 AM","Service","Steven Zimmer","szimmer@midco.com",,,,,,,,,,"T. Rodney",,
"Rydell Chevrolet Buick GMC Cadillac","3GTU2VEC3EG118977","16155335","6/14/2014 8:16 AM","Service","Conrad Dietzler","deitzler_honey36@hotmail.com",,,,,,,,,,"Dalen Ben",,
"Rydell Chevrolet Buick GMC Cadillac","1G1ZB5E05CF191030","16155547","6/13/2014 8:20 AM","Service","Dharma Acharya","noradpokhrel42@yahoo.com",,,,,,,,,,"Paschke Matthew",,
"Rydell Chevrolet Buick GMC Cadillac","3GCUKSEC6EG383567","19171606","6/13/2014 8:23 AM","Service","Michael Oleary","mlofarms@invisimax.com",,,,,,,,,,"Robles Rudolph",,
"Rydell Chevrolet Buick GMC Cadillac","3GCUKREC8EG252780","19171141","6/12/2014 8:17 AM","Service","Chad Baumgarten","chadb1878@yahoo.com",,,,,,,,,,"Collins Brian",,
"Rydell Chevrolet Buick GMC Cadillac","1GCVKREC4EZ325504",,"6/12/2014 8:01 AM","Sales","Michael Kovar","kovar12@hotmail.com",,"6/12/2014 1:48 PM","Y","4","7","I was told that I would get 2.9% interest on approval and when the finance guy showed up, 3.09 was ""the best possible.""  I thought this was poor especially considering that I've seen other GM dealers offering 1.9% financing.   Otherwise, pretty happy working toward a purchase with you.","Yes","06/13/2014 23:27","Michael, thanks for taking the time to share your experience with us.  We appreciate your feedback as it helps us continue to grow as a dealership. We will be sharing your comments with our team and we encourage you to contact us if you would like to provide more details.","Pearson Bobby","06/19/2014","Pending"
"Rydell Chevrolet Buick GMC Cadillac","1GNKVGKD2EJ361533",,"6/6/2014 9:19 AM","Sales","John Lyons","jpsmlyons@msn.com",,"6/10/2014 5:18 AM","N","5","10","Treated respectfully, friendly and helpful","",,,"Roemmich Tyler","","Opt-Out"
"Rydell Chevrolet Buick GMC Cadillac","1G1ZT58F37F115888","19171343","6/11/2014 8:10 AM","Service","Kayla Jahraus","kayla.jahraus@und.edu",,,,,,,,,,"Johnston Nick",,
"Rydell Chevrolet Buick GMC Cadillac","1GKS2MEFXCR267058","16155037","6/14/2014 8:16 AM","Service","Terra Lundeby","terralundeby@msn.com",,,,,,,,,,"Bursinger Travis",,
"Rydell Chevrolet Buick GMC Cadillac","2GNALBEK7D1122261","18029889","6/12/2014 8:17 AM","Service","Kym Grove","kymjanet@rrv.net",,,,,,,,,,"Yem Michael",,
"Rydell Chevrolet Buick GMC Cadillac","1GCRKSE3XBZ176584","19171490","6/13/2014 8:21 AM","Service","Nancy Burke","eerikburke@hotmail.com",,,,,,,,,,"Berg Stephen",,
"Rydell Chevrolet Buick GMC Cadillac","1GNFLGEK9EZ108129","19171064","6/11/2014 8:07 AM","Service","Judy Henry","jhenry@cartiva.com",,"6/11/2014 2:24 PM","Y","5","10","I don't like putting in comments... but Rydell's ROCKS!","Yes","06/12/2014 01:50","Thank you for the positive feedback!","Berg Stephen","06/18/2014","Pending"
"Rydell Chevrolet Buick GMC Cadillac","3GTP2WE33BG396275","18030106","6/12/2014 8:17 AM","Service","Larry Love","ljlove5@msn.com",,,,,,,,,,"Sattler Nic",,
"Rydell Chevrolet Buick GMC Cadillac","2G1WT57N691133162","19171365","6/11/2014 8:10 AM","Service","Sherril Brundell","sherrieandal@msn.com",,,,,,,,,,"Johnston Nick",,
"Rydell Chevrolet Buick GMC Cadillac","1G1PF5S95B7257535","19171180","6/12/2014 8:18 AM","Service","David Ford","d.dot.ford@gmail.com",,,,,,,,,,"Robles Rudolph",,
"Rydell Chevrolet Buick GMC Cadillac","1G4HR54K53U197743","19171507","6/13/2014 8:22 AM","Service","Dennis Mccoy","mccoyde1@polarcomm.com",,,,,,,,,,"Robles Rudolph",,
"Rydell Chevrolet Buick GMC Cadillac","1GCEK14R3TZ136055","16155793","6/11/2014 8:05 AM","Service","Herbert Lilleberg","dnh@aol.com",,,,,,,,,,"Stinar Cory",,
"Rydell Chevrolet Buick GMC Cadillac","1GKKVRKD4DJ230806","19171657","6/13/2014 8:23 AM","Service","Bruce Mathson","twointrf@yahoo.com",,"6/14/2014 8:01 PM","N","5","10","Friendly, knowledgeable, and decent prices with good service. ","",,,"Flikka Matt","","Opt-Out"
"Rydell Chevrolet Buick GMC Cadillac","3GNFK12387G129926","19171589","6/13/2014 8:23 AM","Service","Mary Berntson","mebernt@yahoo.com",,,,,,,,,,"Johnston Nick",,
"Rydell Chevrolet Buick GMC Cadillac","1G6DS5E35C0137406","16155644","6/12/2014 8:16 AM","Service","Dennis Ball","lball@gra.midco.net",,,,,,,,,,"Ramberg Gary",,
"Rydell Chevrolet Buick GMC Cadillac","1GCVKRECXEZ108832","16155655","6/13/2014 8:20 AM","Service","Bud Hunter","budhunter0029@gmail.com",,,,,,,,,,"Ramberg Gary",,
"Rydell Chevrolet Buick GMC Cadillac","2G1WB58N481214967","19171704","6/13/2014 8:24 AM","Service","Mitchell Beck","mb52_@hotmail.com",,,,,,,,,,"Collins Brian",,
"Rydell Chevrolet Buick GMC Cadillac","1GNKVLED3CJ207043","19171444","6/11/2014 8:10 AM","Service","Lynnette Evenson","evensonag@rrv.net",,,,,,,,,,"Flikka Matt",,
"Rydell Chevrolet Buick GMC Cadillac","1GAHG35U461209345","18029925","6/12/2014 8:17 AM","Service","Frank Shelton","dunshelt@hotmail.com",,,,,,,,,,"Yem Michael",,
"Rydell Chevrolet Buick GMC Cadillac","1GNDT13S662105772","19171447","6/11/2014 8:11 AM","Service","Denise Lewandowski","denise.adam@email.und.edu",,,,,,,,,,"Vacura Scott",,
"Rydell Chevrolet Buick GMC Cadillac","3GTP2VE70DG102220","19170988","6/12/2014 8:17 AM","Service","April Prock","april@cviconline.org",,,,,,,,,,"Collins Brian",,
"Rydell Chevrolet Buick GMC Cadillac","3GCPKSE36BG339044","16155642","6/13/2014 8:20 AM","Service","Adam Wollin","awollin@gmail.com",,,,,,,,,,"Ramberg Gary",,
"Rydell Chevrolet Buick GMC Cadillac","3GNEK12T94G173151","19171367","6/11/2014 8:10 AM","Service","Robert Buckley","buck@gra.midco.net",,,,,,,,,,"Johnston Nick",,
"Rydell Chevrolet Buick GMC Cadillac","1G1JC6SH3D4155408","19171394","6/11/2014 8:10 AM","Service","Patricia Sele","patti.sele@email.und.edu",,,,,,,,,,"Robles Rudolph",,
"Rydell Chevrolet Buick GMC Cadillac","1G1PC5SB9D7321154","16155652","6/13/2014 8:20 AM","Service","Kelsey Leake","leake@009@umn.edu",,,,,,,,,,"Ramberg Gary",,
"Rydell Chevrolet Buick GMC Cadillac","1G11C5SL0EF116148","19170903","6/12/2014 8:17 AM","Service","Taryn Warner","twarner@gmail.com",,,,,,,,,,"Robles Rudolph",,
"Rydell Chevrolet Buick GMC Cadillac","1GT120E88FF147119",,"6/9/2014 8:01 AM","Sales","Jon Stromstad","strommer64@gmail.com",,"6/9/2014 8:02 AM","Y","5","10","great experience","Yes","06/10/2014 00:49","Thanks for the great feedback!","Pearson Scott","06/13/2014","Published"
"Rydell Chevrolet Buick GMC Cadillac","2G1WH55K049421568","16155675","6/11/2014 8:05 AM","Service","Jacqueline Kuehnel","jackisuek@gmail.com",,,,,,,,,,"Stinar Cory",,
"Rydell Chevrolet Buick GMC Cadillac","1GNDT13W5V2254496","19171452","6/11/2014 8:11 AM","Service","Tim Holcomb","dnh@yahoo.com",,,,,,,,,,"Collins Brian",,
"Rydell Chevrolet Buick GMC Cadillac","1G1JC1247Y7191106","19171519","6/13/2014 8:22 AM","Service","Raymond Bakkum","dnh@yahoo.com",,,,,,,,,,"Collins Brian",,
"Rydell Chevrolet Buick GMC Cadillac","1GKS2MEF4ER175947","19171222","6/12/2014 8:18 AM","Service","Darryl Collette","dcollette@midco.net",,,,,,,,,,"Vacura Scott",,
"Rydell Chevrolet Buick GMC Cadillac","3GNFK12348G191518","16156027","6/13/2014 8:20 AM","Service","David Hagert","dhagert@invisimax.com",,,,,,,,,,"Ramberg Gary",,
"Rydell Chevrolet Buick GMC Cadillac","1G1PH5S90B7135286","16155906","6/12/2014 8:16 AM","Service","Patricia Lucero","find_trish_here@yahoo.com",,"6/13/2014 5:59 AM","Y","5","7","John Tyrell is an amazing service advisor I trust him 100% when I need service on my $26k investment. He knows how important my Cruze is to me and goes that extra mile to keep me safe and happy. John is a rock star! ","Yes","06/14/2014 13:14","Patricia - thank you for taking the time to write about your experience at our dealership. All of us at Rydell Chevrolet Buick GMC Cadillac pride ourselves on our commitment to service excellence.  We appreciate your kind words and look forward to seeing you soon. Thank you!","Tyrrell John","06/19/2014","Pending"
"Rydell Chevrolet Buick GMC Cadillac","1G6DN57U360207423","19171609","6/13/2014 8:23 AM","Service","Bradley Norden","bnorden5871@msn.com",,"6/13/2014 4:59 PM","N","5","10","Fast friendly service ","",,,"Johnston Nick","","Opt-Out"
"Rydell Chevrolet Buick GMC Cadillac","3GCPKSE37BG383845","16155379","6/13/2014 8:19 AM","Service","Lloyd Kuster","lgkuster@bremer.com",,"6/13/2014 11:08 AM","Y","5","10","Service was courteous, work was completed earlier than expected.  Pickup was washed when I went to pick it up.  Provided me with a vehicle to drive while my pickup was getting fixed.  Very Satisfied.","Yes","06/14/2014 03:17","It's great to hear that you had such a positive experience with our service department and thank you for the feedback.  We value your business and look forward to your next service appointment.","T. Rodney","06/19/2014","Pending"
"Rydell Chevrolet Buick GMC Cadillac","2G1125S39E9111302","19171111","6/12/2014 8:17 AM","Service","Robert Lukkason","bobbylukkason@hotmail.com",,,,,,,,,,"Johnston Nick",,
"Rydell Chevrolet Buick GMC Cadillac","3GYFNDE31CS512055","19171395","6/13/2014 8:21 AM","Service","Peggy Pemberton","dnh@aol.com",,,,,,,,,,"Robles Rudolph",,
"Rydell Chevrolet Buick GMC Cadillac","1G1ZH57B884202893","19171037","6/11/2014 8:07 AM","Service","Tina Schmidt","tinalevay@yahoo.com",,,,,,,,,,"Vacura Scott",,
"Rydell Chevrolet Buick GMC Cadillac","2GKFLVEK4C6301511","19171175","6/11/2014 8:08 AM","Service","Emily Schmidt","emilysueyoney@hotmail.com",,,,,,,,,,"Collins Brian",,
"Rydell Chevrolet Buick GMC Cadillac","3G5DB03E84S553682","19171219","6/11/2014 8:09 AM","Service","Sergiu Punga","dnh@yahoo.com",,,,,,,,,,"Collins Brian",,
"Rydell Chevrolet Buick GMC Cadillac","2GCEK19TXY1381178","19171615","6/13/2014 8:23 AM","Service","Karen Blegen","kblegen@yahoo.com",,,,,,,,,,"Johnston Nick",,
"Rydell Chevrolet Buick GMC Cadillac","1G11H5SA4DF273826","19171252","6/11/2014 8:09 AM","Service","Denise Ritterman","dmritterman@gmail.com",,,,,,,,,,"Johnston Nick",,
"Rydell Chevrolet Buick GMC Cadillac","3GTU2VEC9EG317791","19171128","6/12/2014 8:17 AM","Service","Chase Boen","chase.boen@agcountry.com",,,,,,,,,,"Collins Brian",,
"Rydell Chevrolet Buick GMC Cadillac","1GNFK16367J218628","19171585","6/13/2014 8:23 AM","Service","Joel Walski","walski@aero.und.edu",,,,,,,,,,"Johnston Nick",,
"Rydell Chevrolet Buick GMC Cadillac","3GCEK23309G279332","19171042","6/11/2014 8:07 AM","Service","Paul Czapiewski","pmczapiewski@nd.gov",,,,,,,,,,"Berg Stephen",,
"Rydell Chevrolet Buick GMC Cadillac","2GNFLEEK9C6131617","19171578","6/13/2014 8:22 AM","Service","Kristina Kvernen","kkvernen81@gmail.com",,,,,,,,,,"Johnston Nick",,
"Rydell Chevrolet Buick GMC Cadillac","3GNDA33P07S547577","19171387","6/11/2014 8:10 AM","Service","Tom Wynne","wynnert@hotmail.com",,,,,,,,,,"Robles Rudolph",,
"Rydell Chevrolet Buick GMC Cadillac","1GT120E80FF147387",,"6/13/2014 8:02 AM","Sales","David Mumbulo","jmumbulo1975@gmail.com",,,,,,,,,,"Hanson Brett",,
"Rydell Chevrolet Buick GMC Cadillac","3GTEK23319G157756","19171637","6/13/2014 8:23 AM","Service","Troy Egstad","egstadnichole@hotmail.com",,,,,,,,,,"Flikka Matt",,
"Rydell Chevrolet Buick GMC Cadillac","1GNDV33167D127547","19171390","6/11/2014 8:10 AM","Service","Kristen Rundquist","wng@aul.com",,,,,,,,,,"Johnston Nick",,
"Rydell Chevrolet Buick GMC Cadillac","1GKKVNED7BJ168285","16155397","6/12/2014 8:16 AM","Service","Monica Jackson","mojackso25@hotmail.com",,,,,,,,,,"Stinar Cory",,
"Rydell Chevrolet Buick GMC Cadillac","1GKET63M972207200","16154992","6/12/2014 8:16 AM","Service","Steven Adair","sadair58@yahoo.com",,,,,,,,,,"Ramberg Gary",,
"Rydell Chevrolet Buick GMC Cadillac","1GCRKSE30BZ297138","16155858","6/12/2014 8:16 AM","Service","Perry Gagnon","tgagnon@rydellcars.com",,,,,,,,,,"Tyrrell John",,
"Rydell Chevrolet Buick GMC Cadillac","2G61S5S34D9207668","16154807","6/13/2014 8:19 AM","Service","Antwaun Williams","skinnyp1@hotmail.com",,,,,,,,,,"T. Rodney",,
"Rydell Chevrolet Buick GMC Cadillac","1GCRKSE73DZ307523","19171598","6/13/2014 8:23 AM","Service","Philip Norgren","phil.norgren@landpride.com",,,,,,,,,,"Robles Rudolph",,
"Rydell Chevrolet Buick GMC Cadillac","1G6KS52Y1SU821058","16155926","6/13/2014 8:20 AM","Service","Evelynn Hensrud","ehensrud@aol.com",,,,,,,,,,"T. Rodney",,
"Rydell Chevrolet Buick GMC Cadillac","1G1PH5S99B7258956","16155245","6/13/2014 8:19 AM","Service","Thomas Zejdlik","tjturtle_7@hotmail.com",,,,,,,,,,"Bursinger Travis",,
"Rydell Chevrolet Buick GMC Cadillac","1GNSKJE78DR342397","19171137","6/11/2014 8:08 AM","Service","Robert Birdbear","rbirdbear@yahoo.com",,,,,,,,,,"Collins Brian",,
"Rydell Chevrolet Buick GMC Cadillac","2G1WB58N089267148","19171114","6/11/2014 8:07 AM","Service","Charles Beaudry","chuckbeaudry@gmail.com",,,,,,,,,,"Robles Rudolph",,
"Rydell Chevrolet Buick GMC Cadillac","3GTP2VE71CG225717","16155963","6/12/2014 8:16 AM","Service","Dane Eastman","daneeastman@hotmail.com",,,,,,,,,,"Bursinger Travis",,
"Rydell Chevrolet Buick GMC Cadillac","1G1JC12F657119746","19171375","6/11/2014 8:10 AM","Service","Margaret Littlefield","littlefield68@yahoo.com",,,,,,,,,,"Robles Rudolph",,
"Rydell Chevrolet Buick GMC Cadillac","2G1WG5E30D1113410","19171122","6/12/2014 8:17 AM","Service","Matthew Pauls","dnh@yahoo.com",,,,,,,,,,"Collins Brian",,
"Rydell Chevrolet Buick GMC Cadillac","3GNAL2EK8CS633609","16156113","6/14/2014 8:16 AM","Service","Abigail Austin","abby.ausin@sendit.nodak.edu",,,,,,,,,,"Bursinger Travis",,
"Rydell Chevrolet Buick GMC Cadillac","1GCEK19T31E146657","18030099","6/14/2014 8:17 AM","Service","Thomas Eidson","cody.eidson@gmail.com",,,,,,,,,,"Yem Michael",,
"Rydell Chevrolet Buick GMC Cadillac","1GCHK29265E109666","19171007","6/11/2014 8:06 AM","Service","Randall Koenen","dkoenen@rydellchev.com",,"6/11/2014 8:27 AM","Y","5","10","The BEST!!!!","Yes","06/11/2014 11:00","Thank you very much!","Johnston Nick","06/17/2014","Pending"
"Rydell Chevrolet Buick GMC Cadillac","2GNFLGEK0C6332950","19171466","6/11/2014 8:11 AM","Service","Joseph Bartholome","bart1123_1999@yahoo.com",,"6/14/2014 3:19 PM","Y","4","8","Quick oil change.","Yes","06/15/2014 01:39","We appreciate your comments!","Collins Brian","06/23/2014","Pending"
"Rydell Chevrolet Buick GMC Cadillac","1GNSKKE33BR209918","19171179","6/11/2014 8:08 AM","Service","Joe Amundson","dnh@yahoo.com",,,,,,,,,,"Collins Brian",,
"Rydell Chevrolet Buick GMC Cadillac","1GCSKSE35AZ151639","19171171","6/12/2014 8:18 AM","Service","Christian Skogen","toughwrangler@live.com",,,,,,,,,,"Collins Brian",,
"Rydell Chevrolet Buick GMC Cadillac","3GCEK13317G510908","16154532","6/12/2014 8:15 AM","Service","Deborah Dunham","msolson27@hotmail.com",,,,,,,,,,"T. Rodney",,
"Rydell Chevrolet Buick GMC Cadillac","1G11B5SL5EF222890",,"6/9/2014 8:00 AM","Sales","Steven Bondy","sb2252@aol.com",,,,,,,,,,"Humble Larry",,
"Rydell Chevrolet Buick GMC Cadillac","3GCEK23309G197018","19171677","6/13/2014 8:24 AM","Service","Rodney Medalen","wng@aul.com",,,,,,,,,,"Robles Rudolph",,
"Rydell Chevrolet Buick GMC Cadillac","1G4GG5E32CF194991","19171014","6/11/2014 8:07 AM","Service","Kim Olson","ksolson@wiktel.com",,,,,,,,,,"Berg Stephen",,
"Rydell Chevrolet Buick GMC Cadillac","3GTU2VEC6EG172242","16155777","6/13/2014 8:20 AM","Service","Dana Espelund","dana.espelund@gmail.com",,"6/14/2014 11:14 AM","Y","5","10","Greg and Ken were great they took care of the situation right away.","Yes","06/15/2014 00:23","Your kind words are much appreciated!  Thanks for the review and have fun driving your vehicle.","Ramberg Gary","06/20/2014","Pending"
"Rydell Chevrolet Buick GMC Cadillac","2G1WJ15K279375730","16155696","6/10/2014 8:11 AM","Service","Dennis Stenson","none@yahoo.com",,,,,,,,,,"Tyrrell John",,
"Rydell Chevrolet Buick GMC Cadillac","1G1YY26U575105172","16155778","6/11/2014 8:05 AM","Service","Dennis Crews","denniscrews@yahoo.com",,,,,,,,,,"Tyrrell John",,
"Rydell Chevrolet Buick GMC Cadillac","2GCEK19T2Y1322934","19171644","6/13/2014 8:23 AM","Service","Ronald Czapiewski","dnh@yahoo.com",,,,,,,,,,"Collins Brian",,
"Rydell Chevrolet Buick GMC Cadillac","3GCUKTEC8EG386735","19171001","6/12/2014 8:17 AM","Service","Eugene Dybing","gdybing@rrv.net",,,,,,,,,,"Robles Rudolph",,
"Rydell Chevrolet Buick GMC Cadillac","1GNDT13X93K152866","19171457","6/11/2014 8:11 AM","Service","Gerald Uriell","dnh@yahoo.com",,,,,,,,,,"Collins Brian",,
"Rydell Chevrolet Buick GMC Cadillac","1G1ZE5EBXAF255486","16155983","6/12/2014 8:17 AM","Service","Arvin Brorby","chev74l@msn.com",,,,,,,,,,"Dalen Ben",,
"Rydell Chevrolet Buick GMC Cadillac","2G1WT58K169252934","16156202","6/14/2014 8:17 AM","Service","Margaret Krogstad","mek0423@msn.com",,,,,,,,,,"T. Rodney",,
"Rydell Chevrolet Buick GMC Cadillac","2GNFLEEK9C6121234","19171096","6/11/2014 8:07 AM","Service","Roger Abbe","rcabbe@gra.midco.net",,,,,,,,,,"Collins Brian",,
"Rydell Chevrolet Buick GMC Cadillac","1GC2KVE83FZ107000",,"6/10/2014 8:01 AM","Sales","Anthony Sandbo","ajluckc@yahoo.com",,,,,,,,,,"Tarr Jeff",,
"Rydell Chevrolet Buick GMC Cadillac","2G4WS52J741272686","16155632","6/9/2014 8:09 AM","Service","Lauren Guck","11guckla@gmail.com",,,,,,,,,,"Dalen Ben",,
"Rydell Chevrolet Buick GMC Cadillac","1GNDX03EX4D127140","16156010","6/13/2014 8:20 AM","Service","Guleed Welli","guleed_88@hotmail.com",,,,,,,,,,"T. Rodney",,
"Rydell Chevrolet Buick GMC Cadillac","2G1WT57KX91116659","19171434","6/11/2014 8:10 AM","Service","Jeffrey Cariveau","jeffcariveau@gra.midco.net",,,,,,,,,,"Collins Brian",,
"Rydell Chevrolet Buick GMC Cadillac","1GYUKBEF3AR136571","16155755","6/10/2014 8:11 AM","Service","Dan Sampson","grusampson@aol.com",,,,,,,,,,"Carlson Ken",,
"Rydell Chevrolet Buick GMC Cadillac","1GTR2WE76CZ263457","16154697","6/11/2014 8:05 AM","Service","Jerome Herington","dnh@aol.com",,,,,,,,,,"Bursinger Travis",,
"Rydell Chevrolet Buick GMC Cadillac","3GTU2UEC4EG104726","16155236","6/12/2014 8:16 AM","Service","Raymond Hunt","dnh@aol.com",,,,,,,,,,"Carlson Ken",,
"Rydell Chevrolet Buick GMC Cadillac","1G1PH5S98B7110975","19171546","6/13/2014 8:22 AM","Service","Gary Maurstad Jr.","gmaurstad@rocketmail.com",,,,,,,,,,"Vacura Scott",,
"Rydell Chevrolet Buick GMC Cadillac","1G1PD5SH3B7174411","16156008","6/13/2014 8:20 AM","Service","Eric Smith","wng@aol.com",,,,,,,,,,"Stinar Cory",,
"Rydell Chevrolet Buick GMC Cadillac","1G1PJ5SC6C7293892","19171545","6/13/2014 8:22 AM","Service","Gale Delude","jgdelude@gra.midco.net",,,,,,,,,,"Flikka Matt",,
"Rydell Chevrolet Buick GMC Cadillac","3GCXKSE20AG274214","16155911","6/13/2014 8:20 AM","Service","Shannon Jack","shannonjamesjack@yahoo.com",,,,,,,,,,"Ramberg Gary",,
"Rydell Chevrolet Buick GMC Cadillac","2CNALDECXB6324617","16156076","6/14/2014 8:16 AM","Service","Felicia O'bryan","feliciaobr@msn.com",,,,,,,,,,"Ramberg Gary",,
"Rydell Chevrolet Buick GMC Cadillac","1G1AK12F657614967","16155764","6/12/2014 8:16 AM","Service","Vicky Geir","randygeir@aol.com",,,,,,,,,,"Bursinger Travis",,
"Rydell Chevrolet Buick GMC Cadillac","1G1PC5SBXE7338918",,"6/11/2014 10:11 AM","Sales","Douglas Grissom","grissom38@yahoo.com",,,,,,,,,,"Kuhn Matt",,
"Rydell Chevrolet Buick GMC Cadillac","3GTU2VEC5EG287219","19171355","6/12/2014 8:18 AM","Service","Lloyd Kennedy","lkennedy@crystalsugar.com",,,,,,,,,,"Robles Rudolph",,
"Rydell Chevrolet Buick GMC Cadillac","1GKKVSKD3DJ251508","19171039","6/11/2014 8:07 AM","Service","Frank Benito Pinta","wng@aol.com",,,,,,,,,,"Robles Rudolph",,
"Rydell Chevrolet Buick GMC Cadillac","3GCUKSEJ8EG451835",,"6/6/2014 9:19 AM","Sales","Paul Rasmussen","pvrasmen@gra.midco.net",,"6/9/2014 12:02 PM","Y","5","10","My last seven vehicles have come from Rydells, and me eighth  will too!","Yes","06/10/2014 02:02","Thank you for sharing about your experience.  We're glad you had a positive experience and we hope to see you again soon!","Roemmich Tyler","06/16/2014","Pending"
"Rydell Chevrolet Buick GMC Cadillac","1GCRKSE37BZ247384","19171481","6/13/2014 8:21 AM","Service","Harold Fischer","h.fischer8@yahoo.com",,,,,,,,,,"Berg Stephen",,
"Rydell Chevrolet Buick GMC Cadillac","2GCEK19T311318025","19171702","6/13/2014 8:24 AM","Service","Virgil Sheggerud","virgils@invismax.com",,,,,,,,,,"Robles Rudolph",,
"Rydell Chevrolet Buick GMC Cadillac","1GTR2VE33BZ330344","19171559","6/13/2014 8:22 AM","Service","Hans Stordahl","pkstordahl@gmail.com",,,,,,,,,,"Johnston Nick",,
"Rydell Chevrolet Buick GMC Cadillac","1GKFK16377J217758","19171512","6/13/2014 8:22 AM","Service","Karl Bollingberg","gloriadios@gfwireless.com",,,,,,,,,,"Robles Rudolph",,
"Rydell Chevrolet Buick GMC Cadillac","1GNFK26389R168857","19171594","6/13/2014 8:23 AM","Service","Bob Kovar","dnh@yahoo.com",,,,,,,,,,"Collins Brian",,
"Rydell Chevrolet Buick GMC Cadillac","1GCEK19T53E117485","19171560","6/13/2014 8:22 AM","Service","Chad Larson","clarson534@yahoo.com",,,,,,,,,,"Flikka Matt",,
"Rydell Chevrolet Buick GMC Cadillac","3GCPKSE31BG267850","19171329","6/11/2014 8:09 AM","Service","Tyler Birdsall","tylerbirdsall2@gmail.com",,,,,,,,,,"Flikka Matt",,
"Rydell Chevrolet Buick GMC Cadillac","1GNFK16347J186455","19171335","6/11/2014 8:10 AM","Service","Larry Kuster","wng@aol.com",,,,,,,,,,"Collins Brian",,
"Rydell Chevrolet Buick GMC Cadillac","1GTEK19T71E345422","19171024","6/11/2014 8:07 AM","Service","Jake Peterson","cutterjimmn@yahoo.com",,,,,,,,,,"Johnston Nick",,
